version="1.0"
tags={
	"Total Conversion"
}
name="Bronze Age Reborn"
replace_path="common/bookmark_portraits"
replace_path="common/bookmarks"
replace_path="common/culture/aesthetics_bundles"
replace_path="common/culture/creation_names"
replace_path="common/culture/cultures"
replace_path="common/coat_of_arms/dynamic_definitions"
replace_path="common/dna_data"
replace_path="common/dynasties"
replace_path="common/men_at_arms_types"
replace_path="common/religion/religions"
replace_path="history/characters"
replace_path="history/cultures"
replace_path="history/province_mappings"
replace_path="history/provinces"
replace_path="history/titles"
replace_path="history/wars"
replace_path="tests"
picture="thumbnail.png"
supported_version="1.14.*"
path="C:/Users/snowl/Documents/Paradox Interactive/Crusader Kings III/mod/bronze_age_reborn_ck3"
remote_file_id="3232096613"