﻿object={
	name="tree_cypress_01_generator_1_0"
	render_pass=Map
	clamp_to_water_level=no
	generated_content=yes
	layer="tree_high_layer"
	pdxmesh="tree_cypress_01_a_mesh"
	count=3
	transform="2773.556641 0.000000 2147.102539 0.000000 0.969689 0.000000 -0.244344 1.000000 1.000000 1.000000
2836.591064 0.000000 2165.774170 0.000000 0.222518 0.000000 0.974928 1.000000 1.000000 1.000000
2838.951904 0.000000 2166.774658 0.000000 0.969445 0.000000 0.245311 1.000000 1.000000 1.000000
"}
object={
	name="tree_cypress_01_generator_1_1"
	render_pass=Map
	clamp_to_water_level=no
	generated_content=yes
	layer="tree_high_layer"
	pdxmesh="tree_cypress_01_b_mesh"
	count=1
	transform="2833.908203 0.000000 2168.920166 0.000000 0.887074 0.000000 -0.461627 1.000000 1.000000 1.000000
"}
object={
	name="tree_cypress_01_generator_1_2"
	render_pass=Map
	clamp_to_water_level=no
	generated_content=yes
	layer="tree_high_layer"
	pdxmesh="tree_cypress_01_c_mesh"
	count=5
	transform="2778.487061 0.000000 2143.412109 0.000000 0.948163 0.000000 -0.317784 1.000000 1.000000 1.000000
2769.972168 0.000000 2142.754395 0.000000 0.861622 0.000000 0.507551 1.000000 1.000000 1.000000
2774.352051 0.000000 2142.734863 0.000000 0.874742 0.000000 0.484589 1.000000 1.000000 1.000000
2832.158936 0.000000 2165.408936 0.000000 0.908815 0.000000 -0.417199 1.000000 1.000000 1.000000
2839.542480 0.000000 2169.212158 0.000000 0.784638 0.000000 -0.619954 1.000000 1.000000 1.000000
"}
