﻿@correct_culture_primary_score = 100
@better_than_the_alternatives_score = 50
@always_primary_score = 1000

e_canaan = {
	color = { 72 90 15 }
	
	cultural_names = {
		name_list_kemetic = cn_retjenu
	}
	
	capital = c_hazor
	
	ai_primary_priority = {
		if = {
			limit = {
				OR = {
					culture = culture:canaanite
					culture = culture:shasu
					culture = culture:ammonite
					culture = culture:moabite
					culture = culture:edomite
					culture = culture:bedu
					culture = culture:sinaian
					culture = culture:phoenician
					culture = culture:golanite
					culture = culture:aramean
				}
			}
			add = @correct_culture_primary_score
		}
		else_if = {
			limit = {
				culture = { has_cultural_pillar = heritage_levantine }
			}
			add = @better_than_the_alternatives_score
		}
	}

	k_yehudah = {
		color = { 95 116 89 }	
		
		cultural_names = {
			name_list_kemetic = cn_djahy
		}
		
		capital = c_lakish
		
		ai_primary_priority = {
			if = {
				limit = {
					OR = {
						culture = culture:canaanite
						culture = culture:shasu
					}
				}
				add = @better_than_the_alternatives_score
			}
		}

		d_gaza = {
			color = { 69 99 82 }
			
			capital = c_gaza
			
			c_gaza = {
				color = { 48 110 85 }
				
				b_4218 = { #Gaza
					province = 4218
					color = { 79 79 79 }
				}
				b_4219 = { #Deir el-Balah
					province = 4219
					color = { 79 79 79 }
				}
				b_4300 = { #Yurza
					province = 4300
					color = { 79 79 79 }
				}
				b_4298 = { #Ma'agalim
					province = 4298
					color = { 79 79 79 }
				}
				b_4301 = { #Garâr
					province = 4301
					color = { 79 79 79 }
				}
				b_4291 = { #S'dêrot
					province = 4291
					color = { 79 79 79 }
				}
			}
			c_rapihu = {
				color = { 40 97 79 }
				
				b_4220 = { #Rapihu
					province = 4220
					color = { 79 79 79 }
				}
				b_4309 = { #Yevul
					province = 4309
					color = { 79 79 79 }
				}
				b_4310 = { #Sârûhen
					province = 4310
					color = { 79 79 79 }
				}
				b_4307 = { #Rafah
					province = 4307
					color = { 79 79 79 }
				}
				b_4303 = { #Yesha
					province = 4303
					color = { 79 79 79 }
				}
			}
			c_nerbut = {
				color = { 59 102 65 }
				
				b_1420 = { #Nerbut
					province = 1420
					color = { 79 79 79 }
				}
				b_3920 = { #Tannuru
					province = 3920
					color = { 79 79 79 }
				}
				b_4308 = { #Laban
					province = 4308
					color = { 79 79 79 }
				}
			}
		}
		d_ashkalon = {
			color = { 65 126 79 }
			
			capital = c_ashkalon
			
			c_ashkalon = {
				color = { 1 128 47 }
				
				b_4216 = { #'Asqalôn
					province = 4216
					color = { 79 79 79 }
				}
				b_4217 = { #Zikim
					province = 4217
					color = { 79 79 79 }
				}
				b_4292 = { #Netivot
					province = 4292
					color = { 79 79 79 }
				}
				b_4290 = { #Or Ha'Nêr
					province = 4290
					color = { 79 79 79 }
				}
				b_4271 = { #Gê'a
					province = 4271
					color = { 79 79 79 }
				}
			}
			c_ashdod = {
				color = { 38 134 100 }
				
				b_4214 = { #'Asdôd
					province = 4214
					color = { 79 79 79 }
				}
				b_4270 = { #Emunim
					province = 4270
					color = { 79 79 79 }
				}
				b_4215 = { #Nitzan
					province = 4215
					color = { 79 79 79 }
				}
				b_4273 = { #'Eqrôn
					province = 4273
					color = { 79 79 79 }
				}
				b_4269 = { #Ba'âlât
					province = 4269
					color = { 79 79 79 }
				}
			}
		}
		d_jerusalem = {
			color = { 62 107 100 }
			
			capital = c_jerusalem
			
			c_jerusalem = {
				color = { 46 88 92 }
				
				b_4242 = { #Yeru-Shalem
					province = 4242
					color = { 79 79 79 }
				}
				b_4263 = { #Kepirâh
					province = 4263
					color = { 79 79 79 }
				}
				b_4258 = { #Râmâh
					province = 4258
					color = { 79 79 79 }
				}
				b_4259 = { #Gib'ôn
					province = 4259
					color = { 79 79 79 }
				}
				b_4277 = { #Ye'ârim
					province = 4277
					color = { 79 79 79 }
				}
				b_4278 = { #'Eytâm
					province = 4278
					color = { 79 79 79 }
				}
			}
			c_western_dead_sea = {
				color = { 38 113 106 }
				
				b_4239 = { #Eyn-Gedi
					province = 4239
					color = { 79 79 79 }
				}
				b_4238 = { #Binyamin
					province = 4238
					color = { 79 79 79 }
				}
				b_4281 = { #Ma'ale Amos
					province = 4281
					color = { 79 79 79 }
				}
				b_4240 = { #Masada
					province = 4240
					color = { 79 79 79 }
				}
				b_4280 = { #Taqô'a
					province = 4280
					color = { 79 79 79 }
				}
				b_4279 = { #Natôpâh
					province = 4279
					color = { 79 79 79 }
				}
			}
			c_gezer = {
				color = { 24 97 87 }
				
				b_4267 = { #Gezer
					province = 4267
					color = { 79 79 79 }
				}
				b_4266 = { #Gimzô
					province = 4266
					color = { 79 79 79 }
				}
				b_4265 = { #Lôd
					province = 4265
					color = { 79 79 79 }
				}
				b_4274 = { #Timnâh
					province = 4274
					color = { 79 79 79 }
				}
				b_4268 = { #'Elteqêh
					province = 4268
					color = { 79 79 79 }
				}
			}
		}
		d_lakish = {
			color = { 100 99 73 }
			
			capital = c_lakish
			
			c_lakish = {
				color = { 101 99 57 }
				
				b_4289 = { #Lakis
					province = 4289
					color = { 79 79 79 }
				}
				b_4276 = { #Sor'âh
					province = 4276
					color = { 79 79 79 }
				}
				b_4288 = { #'Âdôrayim
					province = 4288
					color = { 79 79 79 }
				}
				b_4275 = { #Gat
					province = 4275
					color = { 79 79 79 }
				}
				b_4272 = { #Beror Hayil
					province = 4272
					color = { 79 79 79 }
				}
			}
			c_hebron = {
				color = { 95 85 64 }
				
				b_4284 = { #Hebron
					province = 4284
					color = { 79 79 79 }
				}
				b_4286 = { #Zip
					province = 4286
					color = { 79 79 79 }
				}
				b_4283 = { #Bêyt-Sûr
					province = 4283
					color = { 79 79 79 }
				}
				b_4285 = { #Mâ'on
					province = 4285
					color = { 79 79 79 }
				}
				b_4295 = { #Estamô'a
					province = 4295
					color = { 79 79 79 }
				}
			}
			c_tidhar = {
				color = { 97 97 45 }
				
				b_4297 = { #Tidhar
					province = 4297
					color = { 79 79 79 }
				}
				b_4293 = { #Ruhama
					province = 4293
					color = { 79 79 79 }
				}
				b_4302 = { #Maslul
					province = 4302
					color = { 79 79 79 }
				}
				b_4296 = { #Rahat
					province = 4296
					color = { 79 79 79 }
				}
				b_4305 = { #'Eshel Ha'nasi
					province = 4305
					color = { 79 79 79 }
				}
				b_4294 = { #Dabir
					province = 4294
					color = { 79 79 79 }
				}
			}
		}
		d_simon = {
			color = { 61 124 97 }
			
			capital = c_simon
			
			c_simon = {
				color = { 59 115 106 }
				
				b_4313 = { #Be'êr-Sâba'
					province = 4313
					color = { 79 79 79 }
				}
				b_4320 = { #Hatserim
					province = 4320
					color = { 79 79 79 }
				}
				b_4304 = { #Siqlâg
					province = 4304
					color = { 79 79 79 }
				}
				b_4314 = { #Gilat
					province = 4314
					color = { 79 79 79 }
				}
			}
			c_ramotnegeb = {
				color = { 35 116 90 }
				
				b_4315 = { #Râmôt-Negeb
					province = 4315
					color = { 79 79 79 }
				}
				b_4321 = { #Hura
					province = 4321
					color = { 79 79 79 }
				}
				b_4316 = { #Mahane Yatir
					province = 4316
					color = { 79 79 79 }
				}
				b_4306 = { #Yattir
					province = 4306
					color = { 79 79 79 }
				}
			}
			c_amaleq = {
				color = { 80 110 83 }
				
				b_4319 = { #el-Far'ah
					province = 4319
					color = { 79 79 79 }
				}
				b_4408 = { #Shivta
					province = 4408
					color = { 79 79 79 }
				}
				b_3930 = { #Lukkulu
					province = 3930
					color = { 79 79 79 }
				}
				b_4312 = { #Naveh
					province = 4312
					color = { 79 79 79 }
				}
				b_4311 = { #Jemmeh
					province = 4311
					color = { 79 79 79 }
				}
			}
			c_arad = {
				color = { 48 110 81 }
				
				b_4299 = { #Arad
					province = 4299
					color = { 79 79 79 }
				}
				b_4317 = { #Hura
					province = 4317
					color = { 79 79 79 }
				}
				b_4282 = { #Ka'abne
					province = 4282
					color = { 79 79 79 }
				}
				b_4287 = { #Ma'ale Hever
					province = 4287
					color = { 79 79 79 }
				}
			}
		}
	}
	k_samaria = {
		color = { 75 121 1 }	
		
		capital = c_megiddo
		
		ai_primary_priority = {
			if = {
				limit = {
					OR = {
						culture = culture:canaanite
						culture = culture:shasu
					}
				}
				add = @better_than_the_alternatives_score
			}
		}

		d_yapo = {
			color = { 47 123 1 }
			
			capital = c_yapo
			
			c_yapo = {
				color = { 44 126 1 }
				
				b_4212 = { #Jaffa
					province = 4212
					color = { 79 79 79 }
				}
				b_4213 = { #Yabne'êl
					province = 4213
					color = { 79 79 79 }
				}
				b_4264 = { #Azûru
					province = 4264
					color = { 79 79 79 }
				}
				b_4211 = { #Gat-Rimmôn
					province = 4211
					color = { 79 79 79 }
				}
				b_4250 = { #'Âpêq
					province = 4250
					color = { 79 79 79 }
				}
				b_4251 = { #Yehud
					province = 4251
					color = { 79 79 79 }
				}
			}
			c_sokoh = {
				color = { 1 121 1 }
				
				b_4225 = { #Sôkôh
					province = 4225
					color = { 79 79 79 }
				}
				b_4210 = { #Gerisa
					province = 4210
					color = { 79 79 79 }
				}
				b_4245 = { #Menasseh
					province = 4245
					color = { 79 79 79 }
				}
				b_4209 = { #Michal
					province = 4209
					color = { 79 79 79 }
				}
				b_4222 = { #Gat-padalla
					province = 4222
					color = { 79 79 79 }
				}
			}
		}
		d_jericho = {
			color = { 1 132 4 }
			
			capital = c_jericho
			
			c_jericho = {
				color = { 1 114 1 }
				
				b_4114 = { #Jericho
					province = 4114
					color = { 79 79 79 }
				}
				b_4236 = { #Gilgâl
					province = 4236
					color = { 79 79 79 }
				}
				b_4113 = { #Hajla
					province = 4113
					color = { 79 79 79 }
				}
				b_4112 = { #Ha'arava
					province = 4112
					color = { 79 79 79 }
				}
				b_4111 = { #Auja
					province = 4111
					color = { 79 79 79 }
				}
				b_4235 = { #Yitav
					province = 4235
					color = { 79 79 79 }
				}
			}
			c_saratan = {
				color = { 1 142 1 }
				
				b_4234 = { #Sâratân
					province = 4234
					color = { 79 79 79 }
				}
				b_4233 = { #Têbês
					province = 4233
					color = { 79 79 79 }
				}
				b_4108 = { #Hemdat
					province = 4108
					color = { 79 79 79 }
				}
				b_4109 = { #Zubaydat
					province = 4109
					color = { 79 79 79 }
				}
			}
			c_jordan = {
				color = { 37 124 48 }
				
				b_4103 = { #Bêyt-Se'ân
					province = 4103
					color = { 79 79 79 }
				}
				b_4102 = { #Yardena
					province = 4102
					color = { 79 79 79 }
				}
				b_4202 = { #Rehôb
					province = 4202
					color = { 79 79 79 }
				}
				b_4231 = { #Reshafim
					province = 4231
					color = { 79 79 79 }
				}
				b_4107 = { #Shadmot
					province = 4107
					color = { 79 79 79 }
				}
			}
		}
		d_megiddo = {
			color = { 26 113 1 }
			
			capital = c_megiddo
			
			c_megiddo = {
				color = { 63 101 14 }
				
				b_4193 = { #Megiddô
					province = 4193
					color = { 79 79 79 }
				}
				b_4195 = { #Nahâlôl
					province = 4195
					color = { 79 79 79 }
				}
				b_4192 = { #Yoqne'âm
					province = 4192
					color = { 79 79 79 }
				}
			}
			c_yizrael = {
				color = { 1 103 1 }
				
				b_4198 = { #Yizra'el
					province = 4198
					color = { 79 79 79 }
				}
				b_4201 = { #Ha Gilbo'a
					province = 4201
					color = { 79 79 79 }
				}
				b_4197 = { #Simrôn
					province = 4197
					color = { 79 79 79 }
				}
				b_4199 = { #'Êyn-Dôr
					province = 4199
					color = { 79 79 79 }
				}
				b_4200 = { #Sûnêm
					province = 4200
					color = { 79 79 79 }
				}
			}
			c_taanak = {
				color = { 64 125 40 }
				
				b_4194 = { #Ta'nak
					province = 4194
					color = { 79 79 79 }
				}
				b_4203 = { #Gan Ner
					province = 4203
					color = { 79 79 79 }
				}
				b_4227 = { #'Êyn-Gannîm'
					province = 4227
					color = { 79 79 79 }
				}
				b_4228 = { #Yible'âm
					province = 4228
					color = { 79 79 79 }
				}
			}
		}
		d_eprayim = {
			color = { 1 125 1 }
			
			capital = c_siloh
			
			c_siloh = {
				color = { 1 143 1 }
				
				b_4261 = { #Silôh
					province = 4261
					color = { 79 79 79 }
				}
				b_4254 = { #Tappûah
					province = 4254
					color = { 79 79 79 }
				}
				b_4253 = { #'Ârûmâh
					province = 4253
					color = { 79 79 79 }
				}
				b_4260 = { #Bêyt-Êl
					province = 4260
					color = { 79 79 79 }
				}
			}
			c_rimmon = {
				color = { 40 132 1 }
				
				b_4257 = { #Rimmôn
					province = 4257
					color = { 79 79 79 }
				}
				b_4237 = { #Geba'
					province = 4237
					color = { 79 79 79 }
				}
				b_4256 = { #Ba'al-Hâsôr
					province = 4256
					color = { 79 79 79 }
				}
				b_4255 = { #'Oprâh
					province = 4255
					color = { 79 79 79 }
				}
			}
			c_ebenezer = {
				color = { 1 125 48 }
				
				b_4252 = { #'Eben-'Êzer
					province = 4252
					color = { 79 79 79 }
				}
				b_4249 = { #Pir'âtôn
					province = 4249
					color = { 79 79 79 }
				}
				b_4262 = { #Timnat-Serah
					province = 4262
					color = { 79 79 79 }
				}
			}
		}
		d_dor = {
			color = { 70 91 1 }
			
			capital = c_dor
			
			c_dor = {
				color = { 94 109 38 }
				
				b_4206 = { #Dôr
					province = 4206
					color = { 79 79 79 }
				}
				b_4000 = { #Shiqmona
					province = 4000
					color = { 79 79 79 }
				}
				b_3999 = { #Abu Hawam
					province = 3999
					color = { 79 79 79 }
				}
				b_4204 = { #Elyakim
					province = 4204
					color = { 79 79 79 }
				}
				b_4207 = { #Bat Shlomo
					province = 4207
					color = { 79 79 79 }
				}
				b_4208 = { #Mevorakh
					province = 4208
					color = { 79 79 79 }
				}
			}
			c_menasseh = {
				color = { 92 99 4 }
				
				b_4223 = { #Zemer
					province = 4223
					color = { 79 79 79 }
				}
				b_4205 = { #Ar'ara
					province = 4205
					color = { 79 79 79 }
				}
				b_4226 = { #Ya'bad
					province = 4226
					color = { 79 79 79 }
				}
				b_4221 = { #Mishmar
					province = 4221
					color = { 79 79 79 }
				}
			}
		}
		d_samaria = {
			color = { 1 128 32 }
			
			capital = c_samaria
			
			c_samaria = {
				color = { 72 135 30 }
				
				b_4244 = { #Samaria
					province = 4244
					color = { 79 79 79 }
				}
				b_4243 = { #'Ârubbôt
					province = 4243
					color = { 79 79 79 }
				}
				b_4230 = { #Dôtân
					province = 4230
					color = { 79 79 79 }
				}
				b_4229 = { #Jaba'
					province = 4229
					color = { 79 79 79 }
				}
				b_4224 = { #Hêper
					province = 4224
					color = { 79 79 79 }
				}
			}
			c_sekem = {
				color = { 1 144 49 }
				
				b_4247 = { #Sekem
					province = 4247
					color = { 79 79 79 }
				}
				b_4248 = { #Jamma'in
					province = 4248
					color = { 79 79 79 }
				}
				b_4246 = { #Tirsâh
					province = 4246
					color = { 79 79 79 }
				}
				b_4232 = { #Bezeq
					province = 4232
					color = { 79 79 79 }
				}
			}
		}
	}
	k_ammon = {
		color = { 75 126 40 }
		
		capital = c_rabbatammon
		
		ai_primary_priority = {
			if = {
				limit = {
					culture = culture:ammonite
				}
				add = @correct_culture_primary_score
			}
		}

		d_qamon = {
			color = { 1 131 1 }
			
			capital = c_qamon
			
			c_qamon = {
				color = { 61 131 54 }
				
				b_4096 = { #Qâmôn
					province = 4096
					color = { 79 79 79 }
				}
				b_4098 = { #Waqqas
					province = 4098
					color = { 79 79 79 }
				}
				b_4105 = { #Mehola
					province = 4105
					color = { 79 79 79 }
				}
				b_4097 = { #Lô-debâr
					province = 4097
					color = { 79 79 79 }
				}
				b_4093 = { #Bêyt-'Arbê'l
					province = 4093
					color = { 79 79 79 }
				}
			}
			c_abelmaholah = {
				color = { 54 122 42 }
				
				b_4106 = { #Ma'oz Haim
					province = 4106
					color = { 79 79 79 }
				}
				b_4104 = { #Rakeb
					province = 4104
					color = { 79 79 79 }
				}
				b_4122 = { #'Âbêl-Mahôlâh
					province = 4122
					color = { 79 79 79 }
				}
			}
			c_sama = {
				color = { 1 145 24 }
				
				b_4094 = { #Samâ
					province = 4094
					color = { 79 79 79 }
				}
				b_4095 = { #Himmyah
					province = 4095
					color = { 79 79 79 }
				}
				b_4086 = { #Qurussa
					province = 4086
					color = { 79 79 79 }
				}
				b_4087 = { #Dinhâbâh
					province = 4087
					color = { 79 79 79 }
				}
			}
		}
		d_gilad = {
			color = { 45 128 1 }
			
			capital = c_gilad
			
			c_gilad = {
				color = { 1 114 14 }
				
				b_4136 = { #Gil'âd
					province = 4136
					color = { 79 79 79 }
				}
				b_4128 = { #Mispâh
					province = 4128
					color = { 79 79 79 }
				}
				b_4135 = { #Jerash
					province = 4135
					color = { 79 79 79 }
				}
				b_4137 = { #Graisa
					province = 4137
					color = { 79 79 79 }
				}
				b_4138 = { #Douli
					province = 4138
					color = { 79 79 79 }
				}
			}
			c_edrei = {
				color = { 5 120 1 }
				
				b_4132 = { #'Edre'î
					province = 4132
					color = { 79 79 79 }
				}
				b_4133 = { #Yeno'am
					province = 4133
					color = { 79 79 79 }
				}
				b_4134 = { #Mafraq
					province = 4134
					color = { 79 79 79 }
				}
				b_4089 = { #Husun
					province = 4089
					color = { 79 79 79 }
				}
			}
			c_metuna = {
				color = { 52 117 1 }
				
				b_4091 = { #Metuna
					province = 4091
					color = { 79 79 79 }
				}
				b_4088 = { #Irbid
					province = 4088
					color = { 79 79 79 }
				}
				b_4092 = { #Ras Munif
					province = 4092
					color = { 79 79 79 }
				}
				b_4090 = { #Kitim
					province = 4090
					color = { 79 79 79 }
				}
			}
		}
		d_mahanayim = {
			color = { 39 136 1 }
			
			capital = c_mahanayim
			
			c_mahanayim = {
				color = { 29 148 1 }
				
				b_4141 = { #Mahânayim
					province = 4141
					color = { 79 79 79 }
				}
				b_4125 = { #Burmâ
					province = 4125
					color = { 79 79 79 }
				}
				b_4145 = { #Allan
					province = 4145
					color = { 79 79 79 }
				}
				b_4142 = { #Mastaba
					province = 4142
					color = { 79 79 79 }
				}
				b_4127 = { #Taqwa
					province = 4127
					color = { 79 79 79 }
				}
			}
			c_sukkot = {
				color = { 1 132 1 }
				
				b_4121 = { #Sukkôt
					province = 4121
					color = { 79 79 79 }
				}
				b_4120 = { #Panû'êl
					province = 4120
					color = { 79 79 79 }
				}
				b_4124 = { #Sâpôn
					province = 4124
					color = { 79 79 79 }
				}
				b_4140 = { #Subayhi
					province = 4140
					color = { 79 79 79 }
				}
				b_4123 = { #'Âmmatâ
					province = 4123
					color = { 79 79 79 }
				}
			}
		}
		d_rabbatammon = {
			color = { 1 144 1 }
			
			capital = c_rabbatammon
			
			c_rabbatammon = {
				color = { 67 152 1 }
				
				b_4160 = { #Rabbat-'Ammôn
					province = 4160
					color = { 79 79 79 }
				}
				b_4146 = { #Hanou
					province = 4146
					color = { 79 79 79 }
				}
				b_4147 = { #Yogbahâh
					province = 4147
					color = { 79 79 79 }
				}
				b_4144 = { #Zarqa
					province = 4144
					color = { 79 79 79 }
				}
				b_4143 = { #Birah
					province = 4143
					color = { 79 79 79 }
				}
				b_4165 = { #'Âbêl-Karâmîm
					province = 4165
					color = { 79 79 79 }
				}
			}
			c_sittim = {
				color = { 58 159 20 }
				
				b_4117 = { #Sittim
					province = 4117
					color = { 79 79 79 }
				}
				b_4119 = { #'Âdâm
					province = 4119
					color = { 79 79 79 }
				}
				b_4116 = { #Bêyt-Hârân
					province = 4116
					color = { 79 79 79 }
				}
				b_4149 = { #Ya'zêr
					province = 4149
					color = { 79 79 79 }
				}
			}
			c_hesbon = {
				color = { 1 152 1 }
				
				b_4161 = { #Hesbôn
					province = 4161
					color = { 79 79 79 }
				}
				b_4150 = { #Bêyt-Nimrâh
					province = 4150
					color = { 79 79 79 }
				}
				b_4148 = { #Ela'âlêh
					province = 4148
					color = { 79 79 79 }
				}
			}
			c_abelkaramim = {
				color = { 1 126 1 }
				
				b_4169 = { #Susseifa
					province = 4169
					color = { 79 79 79 }
				}
				b_4170 = { #Hallabat
					province = 4170
					color = { 79 79 79 }
				}
				b_4324 = { #Ijammi
					province = 4324
					color = { 79 79 79 }
				}
				b_4323 = { #Ahazu
					province = 4323
					color = { 79 79 79 }
				}
			}
		}
	}
	k_moab = {
		color = { 69 125 1 }
		
		capital = c_dibon
		
		ai_primary_priority = {
			if = {
				limit = {
					culture = culture:moabite
				}
				add = @correct_culture_primary_score
			}
		}

		d_dibon = {
			color = { 1 111 1 }
			
			capital = c_dibon
			
			c_dibon = {
				color = { 1 109 27 }
				
				b_4162 = { #Dîbôn
					province = 4162
					color = { 79 79 79 }
				}
				b_4164 = { #Mêdabâ'
					province = 4164
					color = { 79 79 79 }
				}
				b_4166 = { #Yâhas
					province = 4166
					color = { 79 79 79 }
				}
				b_4163 = { #Mêypâ'at
					province = 4163
					color = { 79 79 79 }
				}
				b_4155 = { #'Ârô'êr
					province = 4155
					color = { 79 79 79 }
				}
			}
			c_atarot = {
				color = { 1 93 1 }
				
				b_4154 = { #'Âtârôt
					province = 4154
					color = { 79 79 79 }
				}
				b_4153 = { #Judayyida
					province = 4153
					color = { 79 79 79 }
				}
				b_4151 = { #Nab'ô
					province = 4151
					color = { 79 79 79 }
				}
				b_4152 = { #Qiryâtayim
					province = 4152
					color = { 79 79 79 }
				}
				b_4115 = { #Swemeh
					province = 4115
					color = { 79 79 79 }
				}
			}
			c_meypaat = {
				color = { 28 106 1 }
				
				b_4167 = { #Rasas
					province = 4167
					color = { 79 79 79 }
				}
				b_4168 = { #Alia
					province = 4168
					color = { 79 79 79 }
				}
				b_4410 = { #Ziwanas
					province = 4410
					color = { 79 79 79 }
				}
			}
		}
		d_ar = {
			color = { 81 134 1 }
			
			capital = c_ar
			
			c_ar = {
				color = { 36 120 1 }
				
				b_4173 = { #Batîr
					province = 4173
					color = { 79 79 79 }
				}
				b_4172 = { #Judayyda
					province = 4172
					color = { 79 79 79 }
				}
				b_4175 = { #Adir
					province = 4175
					color = { 79 79 79 }
				}
				b_4386 = { #Nu'aimah
					province = 4386
					color = { 79 79 79 }
				}
				b_4382 = { #Qîr-Hâreset
					province = 4382
					color = { 79 79 79 }
				}
			}
			c_eglat = {
				color = { 68 124 1 }
				
				b_4380 = { #'Eglat
					province = 4380
					color = { 79 79 79 }
				}
				b_4156 = { #Mujib
					province = 4156
					color = { 79 79 79 }
				}
				b_4381 = { #Mazrah
					province = 4381
					color = { 79 79 79 }
				}
			}
			c_balu = {
				color = { 1 132 1 }
				
				b_4158 = { #Bâlû'
					province = 4158
					color = { 79 79 79 }
				}
				b_4157 = { #Mughayer
					province = 4157
					color = { 79 79 79 }
				}
				b_4159 = { #Qatraneh
					province = 4159
					color = { 79 79 79 }
				}
				b_4171 = { #Hijazi
					province = 4171
					color = { 79 79 79 }
				}
			}
		}
		d_horonayim = {
			color = { 95 131 15 }
			
			capital = c_horonayim
			
			c_horonayim = {
				color = { 78 118 1 }
				
				b_4385 = { #Hôrônayim
					province = 4385
					color = { 79 79 79 }
				}
				b_4417 = { #Arkânish
					province = 4417
					color = { 79 79 79 }
				}
				b_4418 = { #Lysas
					province = 4418
					color = { 79 79 79 }
				}
				b_4387 = { #Hasa
					province = 4387
					color = { 79 79 79 }
				}
				b_4388 = { #Husainya
					province = 4388
					color = { 79 79 79 }
				}
			}
			c_qatranan = {
				color = { 82 128 1 }
				
				b_4174 = { #Qatranan
					province = 4174
					color = { 79 79 79 }
				}
				b_4415 = { #Egkomi
					province = 4415
					color = { 79 79 79 }
				}
				b_4176 = { #Abbûtu
					province = 4176
					color = { 79 79 79 }
				}
			}
		}
	}
	k_edom = {
		color = { 52 70 1 }
		
		capital = c_elath
		
		ai_primary_priority = {
			if = {
				limit = {
					OR = {
						culture = culture:edomite
						culture = culture:bedu
					}
				}
				add = @correct_culture_primary_score
			}
		}

		d_soar = {
			color = { 66 72 1 }
			
			capital = c_soar
			
			c_soar = {
				color = { 87 90 1 }
				
				b_4384 = { #Sô'ar
					province = 4384
					color = { 79 79 79 }
				}
				b_4241 = { #Zohar
					province = 4241
					color = { 79 79 79 }
				}
				b_4318 = { #Kseifa
					province = 4318
					color = { 79 79 79 }
				}
				b_4404 = { #Mamshît
					province = 4404
					color = { 79 79 79 }
				}
				b_4406 = { #Yeroham
					province = 4406
					color = { 79 79 79 }
				}
				b_4405 = { #Hazeva
					province = 4405
					color = { 79 79 79 }
				}
			}
			c_luhit = {
				color = { 44 49 1 }
				
				b_4402 = { #Lûhît
					province = 4402
					color = { 79 79 79 }
				}
				b_4403 = { #'Iddan
					province = 4403
					color = { 79 79 79 }
				}
				b_4383 = { #Gawr
					province = 4383
					color = { 79 79 79 }
				}
			}
			c_ibi = {
				color = { 65 64 23 }
				
				b_4409 = { #Ibi
					province = 4409
					color = { 79 79 79 }
				}
				b_4407 = { #Ese
					province = 4407
					color = { 79 79 79 }
				}
				b_1461 = { #Bako
					province = 1461
					color = { 79 79 79 }
				}
				b_1463 = { #Iokir
					province = 1463
					color = { 79 79 79 }
				}
			}
		}
		d_nabatea = {
			color = { 68 101 1 }
			
			capital = c_herui
			
			ai_primary_priority = {
				if = {
					limit = {
						culture = culture:bedu
					}
					add = @correct_culture_primary_score
				}
			}
			
			c_herui = {
				color = { 34 91 1 }
				
				b_2334 = { #Herui
					province = 2334
					color = { 79 79 79 }
				}
				b_2338 = { #Setet
					province = 2338
					color = { 79 79 79 }
				}
				b_1295 = { #Khemenu
					province = 1295
					color = { 79 79 79 }
				}
			}
			c_ubti = {
				color = { 92 111 47 }
				
				b_1387 = { #Ubti
					province = 1387
					color = { 79 79 79 }
				}
				b_3924 = { #Haql
					province = 3924
					color = { 79 79 79 }
				}
				b_1342 = { #Henu
					province = 1342
					color = { 79 79 79 }
				}
			}
			c_resit = {
				color = { 72 111 9 }
				
				b_1332 = { #Resit
					province = 1332
					color = { 79 79 79 }
				}
				b_4814 = { #Abhu
					province = 4814
					color = { 79 79 79 }
				}
				b_2270 = { #Pesk-re
					province = 2270
					color = { 79 79 79 }
				}
			}
			c_amseth = {
				color = { 29 91 1 }
				
				b_1559 = { #Amseth
					province = 1559
					color = { 79 79 79 }
				}
				b_1561 = { #Amseth
					province = 1561
					color = { 79 79 79 }
				}
				b_1296 = { #Re-per
					province = 1296
					color = { 79 79 79 }
				}
			}
		}
		d_petra = {
			color = { 70 88 1 }
			
			capital = c_petra
			
			c_petra = {
				color = { 70 91 35 }
				
				b_4433 = { #Petra
					province = 4433
					color = { 79 79 79 }
				}
				b_4389 = { #Mdayrej
					province = 4389
					color = { 79 79 79 }
				}
				b_4432 = { #Shoubak
					province = 4432
					color = { 79 79 79 }
				}
				b_4400 = { #Zofar
					province = 4400
					color = { 79 79 79 }
				}
				b_4401 = { #Yahav
					province = 4401
					color = { 79 79 79 }
				}
				b_4399 = { #Sapir
					province = 4399
					color = { 79 79 79 }
				}
			}
			c_maan = {
				color = { 40 84 1 }
				
				b_4390 = { #Ma'an
					province = 4390
					color = { 79 79 79 }
				}
				b_4416 = { #Al-Jafr
					province = 4416
					color = { 79 79 79 }
				}
				b_4391 = { #Mraigha
					province = 4391
					color = { 79 79 79 }
				}
				b_4126 = { #Azrû
					province = 4126
					color = { 79 79 79 }
				}
			}
		}
		d_elath = {
			color = { 1 74 1 }
			
			capital = c_elath
			
			c_elath = {
				color = { 1 52 1 }
				
				b_4395 = { #Elath
					province = 4395
					color = { 79 79 79 }
				}
				b_4396 = { #Timna'
					province = 4396
					color = { 79 79 79 }
				}
				b_4397 = { #Yotvata
					province = 4397
					color = { 79 79 79 }
				}
				b_3957 = { #Elifaz
					province = 3957
					color = { 79 79 79 }
				}
				b_3949 = { #Taba
					province = 3949
					color = { 79 79 79 }
				}
				b_3959 = { #Samadar
					province = 3959
					color = { 79 79 79 }
				}
			}
			c_wadirum = {
				color = { 14 56 1 }
				
				b_4446 = { #Wadi Rum
					province = 4446
					color = { 79 79 79 }
				}
				b_4394 = { #Be'er Ora
					province = 4394
					color = { 79 79 79 }
				}
				b_4393 = { #Qawirah
					province = 4393
					color = { 79 79 79 }
				}
			}
			c_shitim = {
				color = { 16 69 1 }
				
				b_3928 = { #Shitim
					province = 3928
					color = { 79 79 79 }
				}
				b_4392 = { #Harif
					province = 4392
					color = { 79 79 79 }
				}
				b_4398 = { #Grofit
					province = 4398
					color = { 79 79 79 }
				}
				b_3969 = { #Ramon
					province = 3969
					color = { 79 79 79 }
				}
				b_3575 = { #Yahel
					province = 3575
					color = { 79 79 79 }
				}
			}
		}
	}
	k_sinai = {
		color = { 1 73 1 }	
		
		capital = c_khadem
		
		ai_primary_priority = {
			if = {
				limit = {
					culture = culture:sinaian
				}
				add = @correct_culture_primary_score
			}
		}

		d_land_of_turquoise = {
			color = { 1 76 35 }
			
			capital = c_khadem
			
			c_khadem = {
				color = { 26 65 26 }
				
				b_556 = { #Khadem
					province = 556
					color = { 79 79 79 }
				}
				b_1439 = { #Kekut
					province = 1439
					color = { 79 79 79 }
				}
				b_1496 = { #Nestu
					province = 1496
					color = { 79 79 79 }
				}
				b_4627 = { #Hement
					province = 4627
					color = { 79 79 79 }
				}
				b_3795 = { #Ilan
					province = 3795
					color = { 79 79 79 }
				}
			}
			c_magarah = {
				color = { 22 83 57 }
				
				b_1474 = { #Magârah
					province = 1474
					color = { 79 79 79 }
				}
				b_1553 = { #Ertisa
					province = 1553
					color = { 79 79 79 }
				}
				b_1538 = { #Anset
					province = 1538
					color = { 79 79 79 }
				}
				b_1672 = { #Rekh
					province = 1672
					color = { 79 79 79 }
				}
				b_3800 = { #Humaqa
					province = 3800
					color = { 79 79 79 }
				}
			}
			c_ashep = {
				color = { 1 76 46 }
				
				b_1488 = { #Ashep
					province = 1488
					color = { 79 79 79 }
				}
				b_1493 = { #Henti
					province = 1493
					color = { 79 79 79 }
				}
				b_1570 = { #Amentet
					province = 1570
					color = { 79 79 79 }
				}
			}
		}
		d_south_sinai = {
			color = { 1 85 1 }
			
			capital = c_mestpekh
			
			c_mestpekh = {
				color = { 1 94 1 }
				
				b_3793 = { #Mestpekh
					province = 3793
					color = { 79 79 79 }
				}
				b_3342 = { #Matait
					province = 3342
					color = { 79 79 79 }
				}
				b_3794 = { #Nibun
					province = 3794
					color = { 79 79 79 }
				}
				b_3796 = { #Nenu
					province = 3796
					color = { 79 79 79 }
				}
			}
			c_nubnub = {
				color = { 1 83 3 }
				
				b_3798 = { #Nubnub
					province = 3798
					color = { 79 79 79 }
				}
				b_3797 = { #Ninurti
					province = 3797
					color = { 79 79 79 }
				}
				b_3799 = { #Nurit
					province = 3799
					color = { 79 79 79 }
				}
			}
			c_makhait = {
				color = { 53 103 24 }
				
				b_1523 = { #Makhait
					province = 1523
					color = { 79 79 79 }
				}
				b_1572 = { #Heru-khuti
					province = 1572
					color = { 79 79 79 }
				}
				b_1506 = { #Unnefer
					province = 1506
					color = { 79 79 79 }
				}
				b_1436 = { #Tephet
					province = 1436
					color = { 79 79 79 }
				}
			}
		}
		d_east_sinai = {
			color = { 1 65 1 }
			
			capital = c_merrt
			
			c_merrt = {
				color = { 1 58 1 }
				
				b_590 = { #Merrt
					province = 590
					color = { 79 79 79 }
				}
				b_3308 = { #Netcher
					province = 3308
					color = { 79 79 79 }
				}
				b_3309 = { #Herit
					province = 3309
					color = { 79 79 79 }
				}
			}
			c_ubekh = {
				color = { 1 58 1 }
				
				b_3310 = { #Ubekh
					province = 3310
					color = { 79 79 79 }
				}
				b_3311 = { #Pehtes
					province = 3311
					color = { 79 79 79 }
				}
				b_1540 = { #Arxi
					province = 1540
					color = { 79 79 79 }
				}
			}
			c_ketuit = {
				color = { 1 53 1 }
				
				b_1433 = { #Ketuit
					province = 1433
					color = { 79 79 79 }
				}
				b_1442 = { #Tehutit
					province = 1442
					color = { 79 79 79 }
				}
				b_1547 = { #Anrerut
					province = 1547
					color = { 79 79 79 }
				}
				b_1460 = { #Akekit
					province = 1460
					color = { 79 79 79 }
				}
			}
		}
	}
	k_phoenicia = {
		color = { 1 106 39 }	
		
		capital = c_gubla
		
		ai_primary_priority = {
			if = {
				limit = {
					culture = culture:phoenician
				}
				add = @correct_culture_primary_score
			}
			else_if = {
				limit = {
					culture = culture:amoritic
				}
				add = @better_than_the_alternatives_score
			}
		}

		d_gubla = {
			color = { 1 118 1 }
			
			capital = c_gubla
			
			c_gubla = {
				color = { 1 132 1 }
				
				b_3887 = { #Byblos
					province = 3887
					color = { 79 79 79 }
				}
				b_3889 = { #Halat
					province = 3889
					color = { 79 79 79 }
				}
				b_3886 = { #Mechmech
					province = 3886
					color = { 79 79 79 }
				}
				b_3882 = { #Faouqa
					province = 3882
					color = { 79 79 79 }
				}
				b_3883 = { #Qartaba
					province = 3883
					color = { 79 79 79 }
				}
			}
			c_hildua = {
				color = { 45 106 1 }
				
				b_3900 = { #Hildua
					province = 3900
					color = { 79 79 79 }
				}
				b_3897 = { #Ain Dara
					province = 3897
					color = { 79 79 79 }
				}
				b_3898 = { #Baaqline
					province = 3898
					color = { 79 79 79 }
				}
				b_3899 = { #Nîha
					province = 3899
					color = { 79 79 79 }
				}
			}
			c_beirut = {
				color = { 31 96 18 }
				
				b_3893 = { #Berot
					province = 3893
					color = { 79 79 79 }
				}
				b_3891 = { #Bikfaïya
					province = 3891
					color = { 79 79 79 }
				}
				b_3895 = { #Hammâna
					province = 3895
					color = { 79 79 79 }
				}
				b_3890 = { #Jounieh
					province = 3890
					color = { 79 79 79 }
				}
			}
			c_sannine = {
				color = { 1 134 46 }
				
				b_3892 = { #Sannine
					province = 3892
					color = { 79 79 79 }
				}
				b_3445 = { #Sua-llu
					province = 3445
					color = { 79 79 79 }
				}
			}
		}
		d_tyre = {
			color = { 1 104 10 }
			
			capital = c_tyre
			
			c_tyre = {
				color = { 43 90 20 }
				
				b_3982 = { #Tyre
					province = 3982
					color = { 79 79 79 }
				}
				b_3984 = { #Srifa
					province = 3984
					color = { 79 79 79 }
				}
				b_3989 = { #Jouaiyya
					province = 3989
					color = { 79 79 79 }
				}
				b_3992 = { #Usû
					province = 3992
					color = { 79 79 79 }
				}
				b_3983 = { #Maarakeh
					province = 3983
					color = { 79 79 79 }
				}
			}
			c_baram = {				
				color = { 40 115 14 }
				
				b_3991 = { #Bar'am
					province = 3991
					color = { 79 79 79 }
				}
				b_3993 = { #Qânâ
					province = 3993
					color = { 79 79 79 }
				}
				b_3990 = { #Haris
					province = 3990
					color = { 79 79 79 }
				}
				b_3987 = { #Tebnine
					province = 3987
					color = { 79 79 79 }
				}
			}
			c_acre = {
				color = { 1 89 13 }
				
				b_3997 = { #Akkô
					province = 3997
					color = { 79 79 79 }
				}
				b_3996 = { #Akzîb
					province = 3996
					color = { 79 79 79 }
				}
				b_3998 = { #Kêisam
					province = 3998
					color = { 79 79 79 }
				}
				b_4187 = { #Kâbûl
					province = 4187
					color = { 79 79 79 }
				}
			}
			c_hammon = {
				color = { 56 115 1 }
				
				b_3994 = { #Hammôn
					province = 3994
					color = { 79 79 79 }
				}
				b_4184 = { #Mi'ilyâ
					province = 4184
					color = { 79 79 79 }
				}
				b_3995 = { #Ba'ali-râ'si
					province = 3995
					color = { 79 79 79 }
				}
				b_4183 = { #Elon
					province = 4183
					color = { 79 79 79 }
				}
			}
		}
		d_halpa = {
			color = { 1 120 1 }
			
			capital = c_halpa
			
			c_halpa = {
				color = { 50 116 46 }
				
				b_3867 = { #Irqata
					province = 3867
					color = { 79 79 79 }
				}
				b_3865 = { #Halpa
					province = 3865
					color = { 79 79 79 }
				}
				b_3863 = { #Fnaidek
					province = 3863
					color = { 79 79 79 }
				}
				b_3868 = { #Hrar
					province = 3868
					color = { 79 79 79 }
				}
			}
			c_munjez = {
				color = { 53 125 52 }
				
				b_3861 = { #Munjez
					province = 3861
					color = { 79 79 79 }
				}
				b_3862 = { #Daoura
					province = 3862
					color = { 79 79 79 }
				}
			}
		}
		d_sigata = {
			color = { 1 86 1 }
			
			capital = c_sigata
			
			c_sigata = {
				color = { 1 65 1 }
				
				b_3877 = { #Batruna
					province = 3877
					color = { 79 79 79 }
				}
				b_3876 = { #Sigata
					province = 3876
					color = { 79 79 79 }
				}
				b_3885 = { #Zan
					province = 3885
					color = { 79 79 79 }
				}
			}
			c_kusbat = {
				color = { 14 88 1 }
				
				b_3874 = { #Kusbat
					province = 3874
					color = { 79 79 79 }
				}
				b_3879 = { #Cedar Forest
					province = 3879
					color = { 79 79 79 }
				}
			}
			c_ardata = {
				color = { 1 91 1 }
				
				b_3872 = { #Ardata
					province = 3872
					color = { 79 79 79 }
				}
				b_3873 = { #Miziara
					province = 3873
					color = { 79 79 79 }
				}
				b_3871 = { #Miryata
					province = 3871
					color = { 79 79 79 }
				}
			}
		}
		d_sidon = {
			color = { 1 93 1 }
			
			capital = c_sidon
			
			c_sidon = {
				color = { 1 104 39 }
				
				b_3905 = { #Sîdôn
					province = 3905
					color = { 79 79 79 }
				}
				b_3902 = { #Besri
					province = 3902
					color = { 79 79 79 }
				}
				b_3903 = { #Gî'a
					province = 3903
					color = { 79 79 79 }
				}
				b_3906 = { #Habboûch
					province = 3906
					color = { 79 79 79 }
				}
			}
			c_sariptu = {
				color = { 1 88 1 }
				
				b_3908 = { #Sariptu
					province = 3908
					color = { 79 79 79 }
				}
				b_3911 = { #Insar
					province = 3911
					color = { 79 79 79 }
				}
				b_3910 = { #Ebba
					province = 3910
					color = { 79 79 79 }
				}
			}
		}
	}
	k_hazor = {
		color = { 35 48 1 }	
		
		capital = c_hazor
		
		ai_primary_priority = {
			if = {
				limit = {
					OR = {
						culture = culture:golanite
						culture = culture:canaanite
						culture = culture:phoenician
					}
				}
				add = @better_than_the_alternatives_score
			}
		}

		d_qarnayim = {
			color = { 1 27 1 }
			
			capital = c_qarnayim
			
			c_qarnayim = {
				color = { 1 18 1 }
				
				b_4051 = { #Qarnayim
					province = 4051
					color = { 79 79 79 }
				}
				b_4052 = { #'Astarôt
					province = 4052
					color = { 79 79 79 }
				}
				b_4050 = { #Naf'ah
					province = 4050
					color = { 79 79 79 }
				}
				b_4049 = { #Ain Thakar
					province = 4049
					color = { 79 79 79 }
				}
				b_4045 = { #Rafeed
					province = 4045
					color = { 79 79 79 }
				}
			}
			c_apeq = {
				color = { 24 31 22 }
				
				b_3981 = { #Âpêq
					province = 3981
					color = { 79 79 79 }
				}
				b_4099 = { #Kazir
					province = 4099
					color = { 79 79 79 }
				}
				b_3980 = { #Geter
					province = 3980
					color = { 79 79 79 }
				}
				b_4053 = { #Eliad
					province = 4053
					color = { 79 79 79 }
				}
				b_4054 = { #Haspin
					province = 4054
					color = { 79 79 79 }
				}
			}
			c_ortal = {
				color = { 1 30 1 }
				
				b_4047 = { #Ortal
					province = 4047
					color = { 79 79 79 }
				}
				b_4078 = { #Mas'ada
					province = 4078
					color = { 79 79 79 }
				}
				b_4048 = { #Ani'am
					province = 4048
					color = { 79 79 79 }
				}
				b_4046 = { #Alonei
					province = 4046
					color = { 79 79 79 }
				}
			}
		}
		d_raqqat = {
			color = { 1 18 1 }
			
			capital = c_raqqat
			
			c_raqqat = {
				color = { 12 32 22 }
				
				b_4327 = { #Raqqat
					province = 4327
					color = { 79 79 79 }
				}
				b_4177 = { #Kinnâret
					province = 4177
					color = { 79 79 79 }
				}
				b_4188 = { #Kadarim
					province = 4188
					color = { 79 79 79 }
				}
				b_4190 = { #Rimmôn
					province = 4190
					color = { 79 79 79 }
				}
				b_4178 = { #Gat-hêpêr
					province = 4178
					color = { 79 79 79 }
				}
				b_4101 = { #Bêyt-Semes
					province = 4101
					color = { 79 79 79 }
				}
			}
			c_rehob = {
				color = { 1 30 13 }
				
				b_4185 = { #Rehôb
					province = 4185
					color = { 79 79 79 }
				}
				b_4182 = { #Netu'a
					province = 4182
					color = { 79 79 79 }
				}
				b_4181 = { #Meron
					province = 4181
					color = { 79 79 79 }
				}
				b_4186 = { #Karmi'el
					province = 4186
					color = { 79 79 79 }
				}
			}
			c_zebulun = {
				color = { 18 32 10 }
				
				b_4196 = { #Zebûlun
					province = 4196
					color = { 79 79 79 }
				}
				b_4191 = { #Hannâtôn
					province = 4191
					color = { 79 79 79 }
				}
				b_4189 = { #Arraba
					province = 4189
					color = { 79 79 79 }
				}
			}
		}
		d_hazor = {
			color = { 29 40 1 }
			
			capital = c_hazor
			
			c_hazor = {
				color = { 9 42 1 }
				
				b_3975 = { #Hâzôr
					province = 3975
					color = { 79 79 79 }
				}
				b_3976 = { #Naptâlî
					province = 3976
					color = { 79 79 79 }
				}
				b_3979 = { #Lesem
					province = 3979
					color = { 79 79 79 }
				}
				b_3974 = { #Yesud
					province = 3974
					color = { 79 79 79 }
				}
				b_3978 = { #Qatsrin
					province = 3978
					color = { 79 79 79 }
				}
			}
			c_yanoah = {
				color = { 28 42 1 }
				
				b_3972 = { #Yânôah
					province = 3972
					color = { 79 79 79 }
				}
				b_3977 = { #Gonên
					province = 3977
					color = { 79 79 79 }
				}
				b_3970 = { #'Abêl-Bêyt-Ma'âkâh
					province = 3970
					color = { 79 79 79 }
				}
				b_3973 = { #Odem
					province = 3973
					color = { 79 79 79 }
				}
			}
			c_danabu = {
				color = { 23 51 1 }
				
				b_3971 = { #Dân
					province = 3971
					color = { 79 79 79 }
				}
				b_3913 = { #Qlayaa
					province = 3913
					color = { 79 79 79 }
				}
				b_3985 = { #Markaba
					province = 3985
					color = { 79 79 79 }
				}
				b_3965 = { #Hâsbaïya
					province = 3965
					color = { 79 79 79 }
				}
				b_3964 = { #'Iyyôn
					province = 3964
					color = { 79 79 79 }
				}
			}
			c_qedes = {
				color = { 21 49 1 }
				
				b_4179 = { #Qedes
					province = 4179
					color = { 79 79 79 }
				}
				b_3986 = { #Chaqra
					province = 3986
					color = { 79 79 79 }
				}
				b_3988 = { #Malkiya
					province = 3988
					color = { 79 79 79 }
				}
				b_4180 = { #Ami'ad
					province = 4180
					color = { 79 79 79 }
				}
			}
		}
	}
	k_aram = {
		color = { 27 62 23 }
		
		capital = c_damascus
		
		ai_primary_priority = {
			if = {
				limit = {
					culture = culture:aramean
				}
				add = @correct_culture_primary_score
			}
		}

		d_damascus_oasis = {
			color = { 71 83 55 }
			
			capital = c_damascus
			
			c_damascus = {
				color = { 70 95 47 }
				
				b_4030 = { #Dammâseq
					province = 4030
					color = { 79 79 79 }
				}
				b_4025 = { #Ein Al-Fijeh
					province = 4025
					color = { 79 79 79 }
				}
				b_4026 = { #Qudssaya
					province = 4026
					color = { 79 79 79 }
				}
				b_4031 = { #Maarba
					province = 4031
					color = { 79 79 79 }
				}
				b_4033 = { #Duma
					province = 4033
					color = { 79 79 79 }
				}
				b_4034 = { #'Irbîn
					province = 4034
					color = { 79 79 79 }
				}
			}
			c_erneh = {
				color = { 50 80 57 }
				
				b_4029 = { #Erneh
					province = 4029
					color = { 79 79 79 }
				}
				b_4027 = { #Jandal
					province = 4027
					color = { 79 79 79 }
				}
				b_4028 = { #Beqaseem
					province = 4028
					color = { 79 79 79 }
				}
			}
			c_fijeh_spring = {
				color = { 44 65 28 }
				
				b_3944 = { #Barada Spring
					province = 3944
					color = { 79 79 79 }
				}
				b_3945 = { #Rawda
					province = 3945
					color = { 79 79 79 }
				}
				b_3946 = { #Hâmeh
					province = 3946
					color = { 79 79 79 }
				}
				b_3947 = { #Dar Kanon
					province = 3947
					color = { 79 79 79 }
				}
				b_3942 = { #Serghaya
					province = 3942
					color = { 79 79 79 }
				}
			}
			c_hadara = {
				color = { 90 90 63 }
				
				b_4032 = { #Hadara
					province = 4032
					color = { 79 79 79 }
				}
				b_4044 = { #Rakniika
					province = 4044
					color = { 79 79 79 }
				}
				b_4042 = { #Adra
					province = 4042
					color = { 79 79 79 }
				}
			}
			c_nashabiyah = {
				color = { 54 84 65 }
				
				b_4037 = { #Nashabiyah
					province = 4037
					color = { 79 79 79 }
				}
				b_4325 = { #Tulahit
					province = 4325
					color = { 79 79 79 }
				}
				b_4036 = { #Bilaliyah
					province = 4036
					color = { 79 79 79 }
				}
			}
			c_zabdean = {
				color = { 62 84 55 }
				
				b_4035 = { #Zabdean
					province = 4035
					color = { 79 79 79 }
				}
				b_4075 = { #Kiswah
					province = 4075
					color = { 79 79 79 }
				}
				b_4076 = { #Adleyeh
					province = 4076
					color = { 79 79 79 }
				}
				b_4038 = { #Dârayyâ
					province = 4038
					color = { 79 79 79 }
				}
				b_4039 = { #Artooz
					province = 4039
					color = { 79 79 79 }
				}
			}
		}
		d_yabrudu = {
			color = { 1 85 35 }
			
			capital = c_yabrudu
			
			c_yabrudu = {
				color = { 44 78 23 }
				
				b_4019 = { #Yabrûdu
					province = 4019
					color = { 79 79 79 }
				}
				b_4021 = { #An Nabk
					province = 4021
					color = { 79 79 79 }
				}
				b_4022 = { #Qarah
					province = 4022
					color = { 79 79 79 }
				}
				b_4020 = { #Alward
					province = 4020
					color = { 79 79 79 }
				}
			}
			c_qutayfah = {
				color = { 1 100 59 }
				
				b_4043 = { #Qutayfah
					province = 4043
					color = { 79 79 79 }
				}
				b_4018 = { #Ma'loula
					province = 4018
					color = { 79 79 79 }
				}
				b_4017 = { #Sednayah
					province = 4017
					color = { 79 79 79 }
				}
				b_4015 = { #Qurasiti
					province = 4015
					color = { 79 79 79 }
				}
			}
		}
		d_orontes_source = {
			color = { 38 76 1 }
			
			capital = c_orontes_source
			
			c_orontes_source = {
				color = { 24 51 1 }
				
				b_3922 = { #Hazi
					province = 3922
					color = { 79 79 79 }
				}
				b_3925 = { #Younine
					province = 3925
					color = { 79 79 79 }
				}
				b_3921 = { #Safra
					province = 3921
					color = { 79 79 79 }
				}
				b_3923 = { #Nahleh
					province = 3923
					color = { 79 79 79 }
				}
			}
			c_hermel = {
				color = { 46 63 1 }
				
				b_3917 = { #Hermel
					province = 3917
					color = { 79 79 79 }
				}
				b_3916 = { #Charbine
					province = 3916
					color = { 79 79 79 }
				}
				b_3918 = { #Wadi Faara
					province = 3918
					color = { 79 79 79 }
				}
				b_3929 = { #Fakeha
					province = 3929
					color = { 79 79 79 }
				}
				b_3927 = { #Laboueh
					province = 3927
					color = { 79 79 79 }
				}
			}
		}
		d_hazabu = {
			color = { 1 121 1 }
			
			capital = c_hazabu
			
			c_hazabu = {
				color = { 1 122 30 }
				
				b_3950 = { #Hasabu
					province = 3950
					color = { 79 79 79 }
				}
				b_3941 = { #Baalbek
					province = 3941
					color = { 79 79 79 }
				}
				b_3939 = { #Bodai
					province = 3939
					color = { 79 79 79 }
				}
			}
			c_kumidu = {
				color = { 1 117 1 }
				
				b_3968 = { #Kumidu
					province = 3968
					color = { 79 79 79 }
				}
				b_3953 = { #Sôbâh
					province = 3953
					color = { 79 79 79 }
				}
				b_3951 = { #Chamsine
					province = 3951
					color = { 79 79 79 }
				}
				b_3954 = { #Tebah
					province = 3954
					color = { 79 79 79 }
				} 
				b_3960 = { #Kûn
					province = 3960
					color = { 79 79 79 }
				}
			}
			c_huzaza = {
				color = { 1 113 38 }
				
				b_3961 = { #Huzaza
					province = 3961
					color = { 79 79 79 }
				}
				b_3956 = { #Kherbet
					province = 3956
					color = { 79 79 79 }
				}
				b_3967 = { #Bakka
					province = 3967
					color = { 79 79 79 }
				}
				b_3966 = { #Danabu
					province = 3966
					color = { 79 79 79 }
				}
				b_3963 = { #Yohmor
					province = 3963
					color = { 79 79 79 }
				}
			}
		}
	}
	k_basan = {
		color = { 24 110 57 }	
		
		capital = c_sirbasani
		
		ai_primary_priority = {
			if = {
				limit = {
					culture = culture:golanite
				}
				add = @correct_culture_primary_score
			}
			else_if = {
				limit = {
					culture = culture:aramean
				}
				add = @better_than_the_alternatives_score
			}
		}

		d_kanatha = {
			color = { 1 117 82 }
			
			capital = c_kanatha
			
			c_kanatha = {
				color = { 1 125 82 }
				
				b_4066 = { #Kanatha
					province = 4066
					color = { 79 79 79 }
				}
				b_4069 = { #Hobran
					province = 4069
					color = { 79 79 79 }
				}
				b_4070 = { #Nimreh
					province = 4070
					color = { 79 79 79 }
				}
				b_4065 = { #Bosra
					province = 4065
					color = { 79 79 79 }
				}
				b_4081 = { #Shahba
					province = 4081
					color = { 79 79 79 }
				}
				b_4064 = { #Suwayda
					province = 4064
					color = { 79 79 79 }
				}
			}
			c_salkhad = {
				color = { 7 135 107 }
				
				b_4068 = { #Salkhad
					province = 4068
					color = { 79 79 79 }
				}
				b_4067 = { #Hout
					province = 4067
					color = { 79 79 79 }
				}
				b_4082 = { #Dibin
					province = 4082
					color = { 79 79 79 }
				}
				b_4131 = { #Jaber
					province = 4131
					color = { 79 79 79 }
				}
				b_4139 = { #Ilab
					province = 4139
					color = { 79 79 79 }
				}
			}
			c_hwayya = {
				color = { 1 125 101 }
				
				b_4084 = { #Hwayya
					province = 4084
					color = { 79 79 79 }
				}
				b_4083 = { #Shannireh
					province = 4083
					color = { 79 79 79 }
				}
				b_4411 = { #Hazaza
					province = 4411
					color = { 79 79 79 }
				}
				b_4412 = { #Ahiztu
					province = 4412
					color = { 79 79 79 }
				}
			}
			c_taraba = {
				color = { 21 107 69 }
				
				b_4085 = { #Taraba
					province = 4085
					color = { 79 79 79 }
				}
				b_4413 = { #Nutnatta
					province = 4413
					color = { 79 79 79 }
				}
				b_4326 = { #Ghoke
					province = 4326
					color = { 79 79 79 }
				}
			}
		}
		d_sirbasani = {
			color = { 83 117 82 }
			
			capital = c_sirbasani
			
			c_sirbasani = {
				color = { 82 120 103 }
				
				b_4058 = { #Siri-Bâsâni
					province = 4058
					color = { 79 79 79 }
				}
				b_4061 = { #Ramtha
					province = 4061
					color = { 79 79 79 }
				}
				b_4060 = { #Zaizoun
					province = 4060
					color = { 79 79 79 }
				}
				b_4062 = { #Jeezah
					province = 4062
					color = { 79 79 79 }
				}
				b_4059 = { #Tafas
					province = 4059
					color = { 79 79 79 }
				}
				b_4063 = { #Hrak
					province = 4063
					color = { 79 79 79 }
				}
			}
			c_hulhulitu = {
				color = { 51 113 56 }
				
				b_4072 = { #Hulhulîtu
					province = 4072
					color = { 79 79 79 }
				}
				b_4077 = { #Nijran
					province = 4077
					color = { 79 79 79 }
				}
				b_4071 = { #Shaqqa
					province = 4071
					color = { 79 79 79 }
				}
				b_4322 = { #Bawidan
					province = 4322
					color = { 79 79 79 }
				}
			}
		}
		d_saaru = {
			color = { 1 74 1 }
			
			capital = c_saaru
			
			c_saaru = {
				color = { 1 77 22 }
				
				b_4073 = { #Sa'aru
					province = 4073
					color = { 79 79 79 }
				}
				b_4056 = { #Jabah
					province = 4056
					color = { 79 79 79 }
				}
				b_4055 = { #Duriq
					province = 4055
					color = { 79 79 79 }
				}
				b_4074 = { #Kamonah
					province = 4074
					color = { 79 79 79 }
				}
				b_4057 = { #Mamtinah
					province = 4057
					color = { 79 79 79 }
				}
			}
			c_beitjinn = {
				color = { 1 59 9 }
				
				b_4080 = { #Beit Jinn
					province = 4080
					color = { 79 79 79 }
				}
				b_4041 = { #Beit Tema
					province = 4041
					color = { 79 79 79 }
				}
				b_4079 = { #Hader
					province = 4079
					color = { 79 79 79 }
				}
				b_4040 = { #Alsheh
					province = 4040
					color = { 79 79 79 }
				}
			}
		}
	}
}