﻿@correct_culture_primary_score = 100
@better_than_the_alternatives_score = 50
@always_primary_score = 1000

e_subartum = {
	color = { 81 1 1 }
	
	cultural_names = {
		name_list_akkadian = cn_assur
	}
	
	capital = c_ashur
	
	ai_primary_priority = {
		if = {
			limit = {
				OR = {
					culture = culture:assyrian
					culture = culture:tukri
					culture = culture:lullubi
				}
			}
			add = @correct_culture_primary_score
		}
		else_if = {
			limit = {
				OR = {
					culture = { has_cultural_pillar = heritage_mesopotamian }
					culture = { has_cultural_pillar = heritage_zagrosi }
					culture = { has_cultural_pillar = heritage_hurrian }
				}
			}
			add = @better_than_the_alternatives_score
		}
	}
	
	k_gasur = {
		color = { 146 23 31 }
		
		cultural_names = {
			name_list_akkadian = cn_gasur
			name_list_hurrian = cn_nuzi
		}
		
		capital = c_gasur
		
		ai_primary_priority = {
			if = {
				limit = {
					OR = {
						culture = culture:assyrian
						culture = culture:tukri
					}
				}
				add = @better_than_the_alternatives_score
			}
		}

		d_lubda = {
			color = { 186 1 57 }
			
			capital = c_lubda
			
			c_lubda = {
				color = { 188 69 80 }
				
				b_5512 = { #Lubda
					province = 5512
					color = { 79 79 79 }
				}
				b_5513 = { #Madutu
					province = 5513
					color = { 79 79 79 }
				}
				b_6451 = { #Zeru
					province = 6451
					color = { 79 79 79 }
				}
				b_5525 = { #Uradu
					province = 5525
					color = { 79 79 79 }
				}
				b_5528 = { #Raspu
					province = 5528
					color = { 79 79 79 }
				}
				b_5526 = { #Wakalu
					province = 5526
					color = { 79 79 79 }
				}
			}
			c_shinashan = {
				color = { 168 66 76 }
				
				b_5523 = { #Shinashan
					province = 5523
					color = { 79 79 79 }
				}
				b_5521 = { #Tamti
					province = 5521
					color = { 79 79 79 }
				}
				b_5522 = { #Sakrikkum
					province = 5522
					color = { 79 79 79 }
				}
				b_5520 = { #Rabisu
					province = 5520
					color = { 79 79 79 }
				}
				b_5527 = { #Zabalu
					province = 5527
					color = { 79 79 79 }
				}
			}
		}
		d_tursana = {
			color = { 170 76 67 }
			
			capital = c_tursana
			
			c_tursana = {
				color = { 171 58 31 }
				
				b_5429 = { #Turshan
					province = 5429
					color = { 79 79 79 }
				}
				b_5430 = { #Urkatu
					province = 5430
					color = { 79 79 79 }
				}
				b_5436 = { #Quliptu
					province = 5436
					color = { 79 79 79 }
				}
				b_5437 = { #Pisnaqu
					province = 5437
					color = { 79 79 79 }
				}
				b_5427 = { #Tamsiltu
					province = 5427
					color = { 79 79 79 }
				}
				b_5438 = { #Pahzu
					province = 5438
					color = { 79 79 79 }
				}
			}
			c_arutu = {
				color = { 166 56 48 }
				
				b_5506 = { #Arutu
					province = 5506
					color = { 79 79 79 }
				}
				b_5507 = { #Kiam
					province = 5507
					color = { 79 79 79 }
				}
				b_5503 = { #Ramaki
					province = 5503
					color = { 79 79 79 }
				}
				b_5504 = { #Naptini
					province = 5504
					color = { 79 79 79 }
				}
				b_5508 = { #Katinnu
					province = 5508
					color = { 79 79 79 }
				}
			}
		}
		d_sinnu = {
			color = { 150 49 5 }
			
			capital = c_sinnu
			
			c_sinnu = {
				color = { 143 49 1 }
				
				b_5433 = { #Sinnu
					province = 5433
					color = { 79 79 79 }
				}
				b_5434 = { #Sataru
					province = 5434
					color = { 79 79 79 }
				}
				b_5665 = { #Kibrîtu
					province = 5665
					color = { 79 79 79 }
				}
				b_5435 = { #Rappu
					province = 5435
					color = { 79 79 79 }
				}
			}
			c_suqaqu = {
				color = { 126 27 1 }
				
				b_5410 = { #Suqaqu
					province = 5410
					color = { 79 79 79 }
				}
				b_5432 = { #Sursurtu
					province = 5432
					color = { 79 79 79 }
				}
				b_5302 = { #Middutu
					province = 5302
					color = { 79 79 79 }
				}
				b_5422 = { #Akiltu
					province = 5422
					color = { 79 79 79 }
				}
				b_5431 = { #Zabbilu
					province = 5431
					color = { 79 79 79 }
				}
			}
		}
		d_gasur = {
			color = { 170 1 8 }
			
			cultural_names = {
				name_list_akkadian = cn_gasur
				name_list_hurrian = cn_nuzi
			}
			
			capital = c_gasur
			
			c_gasur = {
				color = { 184 1 1 }
				
				cultural_names = {
					name_list_akkadian = cn_gasur
					name_list_hurrian = cn_nuzi
				}
				
				b_5450 = { #Gasur
					cultural_names = {
						name_list_akkadian = cn_gasur
						name_list_hurrian = cn_nuzi
					}
					province = 5450
					color = { 79 79 79 }
				}
				b_5515 = { #Meranu
					province = 5515
					color = { 79 79 79 }
				}
				b_5505 = { #Eb'ala
					province = 5505
					color = { 79 79 79 }
				}
				b_6450 = { #Nuru
					province = 6450
					color = { 79 79 79 }
				}
				b_5514 = { #Mashandu
					province = 5514
					color = { 79 79 79 }
				}
				b_5516 = { #Napahu
					province = 5516
					color = { 79 79 79 }
				}
			}
			c_nampasu = {
				color = { 156 1 1 }
				
				b_5517 = { #Nampasu
					province = 5517
					color = { 79 79 79 }
				}
				b_5509 = { #Hu'uru
					province = 5509
					color = { 79 79 79 }
				}
				b_5518 = { #Pusumtu
					province = 5518
					color = { 79 79 79 }
				}
				b_6449 = { #Sanababa
					province = 6449
					color = { 79 79 79 }
				}
				b_5519 = { #Qashdu
					province = 5519
					color = { 79 79 79 }
				}
			}
		}
	}
	k_simurrum = {
		color = { 90 1 1 }
		
		capital = c_simurrum
		
		ai_primary_priority = {
			if = {
				limit = {
					OR = {
						culture = culture:gutian
						culture = culture:lullubi
						culture = culture:babylonian
						culture = culture:tukri
					}
				}
				add = @better_than_the_alternatives_score
			}
		}
		
		d_pilu = {
			color = { 65 1 1 }
			
			capital = c_pilu
			
			c_pilu = {
				color = { 71 1 1 }
				
				b_1993 = { #Pîlu
					province = 1993
					color = { 79 79 79 }
				}
				b_5663 = { #Askuppatu
					province = 5663
					color = { 79 79 79 }
				}
				b_5605 = { #Zizru
					province = 5605
					color = { 79 79 79 }
				}
				b_5600 = { #Mitutan
					province = 5600
					color = { 79 79 79 }
				}
				b_5604 = { #Shuhhu
					province = 5604
					color = { 79 79 79 }
				}
			}
			c_zamani = {
				color = { 74 1 2 }
				
				b_6220 = { #Zamani
					province = 6220
					color = { 79 79 79 }
				}
				b_5664 = { #Annaku
					province = 5664
					color = { 79 79 79 }
				}
				b_6218 = { #Immaru
					province = 6218
					color = { 79 79 79 }
				}
				b_6221 = { #Baraqu
					province = 6221
					color = { 79 79 79 }
				}
			}
		}
		d_simurrum = {
			color = { 121 1 1 }
			
			capital = c_simurrum
			
			c_simurrum = {
				color = { 122 1 12 }
				
				b_5573 = { #Simurrum
					province = 5573
					color = { 79 79 79 }
				}
				b_5575 = { #Summulu
					province = 5575
					color = { 79 79 79 }
				}
				b_5574 = { #Mashtaktu
					province = 5574
					color = { 79 79 79 }
				}
				b_5583 = { #Ushmittu
					province = 5583
					color = { 79 79 79 }
				}
				b_5584 = { #Kapsharrûtu
					province = 5584
					color = { 79 79 79 }
				}
				b_5585 = { #Alamgâtu
					province = 5585
					color = { 79 79 79 }
				}
			}
			c_mahiru = {
				color = { 116 1 1 }
				
				b_5572 = { #Mahiru
					province = 5572
					color = { 79 79 79 }
				}
				b_5608 = { #Aslu
					province = 5608
					color = { 79 79 79 }
				}
				b_5570 = { #Lurmu
					province = 5570
					color = { 79 79 79 }
				}
			}
			c_harshi = {
				color = { 135 26 35 }
				
				b_5582 = { #Harshi
					province = 5582
					color = { 79 79 79 }
				}
				b_5581 = { #Urrâkûtu
					province = 5581
					color = { 79 79 79 }
				}
				b_5654 = { #Ziptu
					province = 5654
					color = { 79 79 79 }
				}
				b_5660 = { #Dâme
					province = 5660
					color = { 79 79 79 }
				}
			}
		}
		d_shurudhum = {
			color = { 60 1 1 }
			
			capital = c_shurudhum
			
			c_shurudhum = {
				color = { 82 1 1 }
				
				b_5552 = { #Shurudhum
					province = 5552
					color = { 79 79 79 }
				}
				b_5553 = { #Zizânu
					province = 5553
					color = { 79 79 79 }
				}
				b_5524 = { #Taranu
					province = 5524
					color = { 79 79 79 }
				}
				b_5551 = { #Irgilu
					province = 5551
					color = { 79 79 79 }
				}
				b_5561 = { #Arêbu
					province = 5561
					color = { 79 79 79 }
				}
			}
			c_karahar = {
				color = { 74 1 1 }
				
				b_5652 = { #Karahar
					province = 5652
					color = { 79 79 79 }
				}
				b_5562 = { #Dubdubbu
					province = 5562
					color = { 79 79 79 }
				}
				b_5563 = { #Abru
					province = 5563
					color = { 79 79 79 }
				} 
				b_5564 = { #Herêbu
					province = 5564
					color = { 79 79 79 }
				}
			}
		}
		d_halman = {
			color = { 122 1 1 }
			
			capital = c_halman
			
			c_halman = {
				color = { 129 1 1 }
				
				b_5658 = { #Halman
					province = 5658
					color = { 79 79 79 }
				}
				b_6190 = { #Utebbibassu
					province = 6190
					color = { 79 79 79 }
				}
				b_5659 = { #Abrish
					province = 5659
					color = { 79 79 79 }
				}
				b_5657 = { #Nitiru
					province = 5657
					color = { 79 79 79 }
				}
			}
			c_gannanati = {
				color = { 128 1 13 }
				
				b_5656 = { #Gannanati
					province = 5656
					color = { 79 79 79 }
				}
				b_5662 = { #Ellmêshu
					province = 5662
					color = { 79 79 79 }
				}
				b_5661 = { #Digilu
					province = 5661
					color = { 79 79 79 }
				}
				b_5653 = { #Ukussu
					province = 5653
					color = { 79 79 79 }
				}
			}
			c_rutitu = {
				color = { 122 1 1 }
				
				b_5651 = { #Ru'tîtu
					province = 5651
					color = { 79 79 79 }
				}
				b_6205 = { #Nasaqu
					province = 6205
					color = { 79 79 79 }
				}
				b_5655 = { #Naptu
					province = 5655
					color = { 79 79 79 }
				}
			}
			c_sataru = {
				color = { 138 1 1 }
				
				b_6192 = { #Sataru
					province = 6192
					color = { 79 79 79 }
				}
				b_6191 = { #Nibi
					province = 6191
					color = { 79 79 79 }
				}
				b_6202 = { #Sarrum
					province = 6202
					color = { 79 79 79 }
				}
			}
		}
		d_namarum = {
			color = { 88 1 1 }
			
			capital = c_namarum
			
			c_namarum = {
				color = { 106 3 27 }
				
				b_5543 = { #Namarum
					province = 5543
					color = { 79 79 79 }
				}
				b_5567 = { #Uzzu
					province = 5567
					color = { 79 79 79 }
				}
				b_5568 = { #Kurkû
					province = 5568
					color = { 79 79 79 }
				}
				b_5565 = { #Kumû
					province = 5565
					color = { 79 79 79 }
				}
				b_5545 = { #Aribû
					province = 5545
					color = { 79 79 79 }
				}
				b_5544 = { #Bushtitum
					province = 5544
					color = { 79 79 79 }
				}
			}
			c_aiuru = {
				color = { 110 1 1 }
				
				b_5571 = { #Aiuru
					province = 5571
					color = { 79 79 79 }
				} 
				b_5569 = { #Urinnu
					province = 5569
					color = { 79 79 79 }
				}
				b_5577 = { #Têrubtu
					province = 5577
					color = { 79 79 79 }
				}
				b_5578 = { #Tu'intu
					province = 5578
					color = { 79 79 79 }
				}
			}
		}
		d_nikum = {
			color = { 86 1 16 }
			
			capital = c_nikum
			
			c_nikum = {
				color = { 72 1 3 }
				
				b_5586 = { #Nikum
					province = 5586
					color = { 79 79 79 }
				}
				b_5596 = { #Kaqqudu
					province = 5596
					color = { 79 79 79 }
				}
				b_5597 = { #Nakâsu
					province = 5597
					color = { 79 79 79 }
				}
				b_5598 = { #Kimahhu
					province = 5598
					color = { 79 79 79 }
				}
				b_5580 = { #Birmu
					province = 5580
					color = { 79 79 79 }
				}
				b_5579 = { #Maggâru
					province = 5579
					color = { 79 79 79 }
				}
			}
			c_quburu = {
				color = { 115 16 35 }
				
				b_5589 = { #Qubûru
					province = 5589
					color = { 79 79 79 }
				}
				b_5566 = { #Naqâhu
					province = 5566
					color = { 79 79 79 }
				}
				b_5587 = { #Gulgullatu
					province = 5587
					color = { 79 79 79 }
				}
				b_5593 = { #Mûtu
					province = 5593
					color = { 79 79 79 }
				}
			}
		}
	}
	k_lullubum = {
		color = { 78 55 59 }
		
		capital = c_kanara
		
		ai_primary_priority = {
			if = {
				limit = {
					culture = culture:lullubi
				}
				add = @correct_culture_primary_score
			}
			else_if = {
				limit = {
					culture = culture:tukri
				}
				add = @better_than_the_alternatives_score
			}
		}

		d_kakmum = {
			color = { 62 30 50 }
			
			capital = c_kakmum
			
			c_kakmum = {
				color = { 55 20 36 }
				
				b_5500 = { #Dabibu
					province = 5500
					color = { 79 79 79 }
				}
				b_5541 = { #Admûmu
					province = 5541
					color = { 79 79 79 }
				}
				b_5542 = { #Dalqu
					province = 5542
					color = { 79 79 79 }
				}
				b_5493 = { #Hutennu
					province = 5493
					color = { 79 79 79 }
				}
				b_5499 = { #Erishu
					province = 5499
					color = { 79 79 79 }
				}
				b_5538 = { #Itati
					province = 5538
					color = { 79 79 79 }
				}
			}
			c_laglagu = {
				color = { 79 39 58 }
				
				b_5492 = { #Shulmi
					province = 5492
					color = { 79 79 79 }
				}
				b_5496 = { #Humut
					province = 5496
					color = { 79 79 79 }
				}
				b_5498 = { #Gazalu
					province = 5498
					color = { 79 79 79 }
				}
				b_5497 = { #Kakmum
					province = 5497
					color = { 79 79 79 }
				}
				b_5495 = { #Ibilu
					province = 5495
					color = { 79 79 79 }
				}
			}
		}
		d_zamua = {
			color = { 106 85 101 }
			
			capital = c_arragdi
			
			c_arragdi = {
				color = { 113 76 108 }
				
				b_5634 = { #Arragdi
					province = 5634
					color = { 79 79 79 }
				}
				b_5635 = { #Azari
					province = 5635
					color = { 79 79 79 }
				}
				b_5633 = { #Gilâmu
					province = 5633
					color = { 79 79 79 }
				}
				b_5631 = { #Dastu
					province = 5631
					color = { 79 79 79 }
				}
				b_6453 = { #Mudi
					province = 6453
					color = { 79 79 79 }
				}
				b_5636 = { #Bâsish
					province = 5636
					color = { 79 79 79 }
				}
			}
			c_arzuhina = {
				color = { 120 78 93 }
				
				b_5484 = { #Arzuhina
					province = 5484
					color = { 79 79 79 }
				}
				b_5469 = { #Shugitu
					province = 5469
					color = { 79 79 79 }
				}
				b_5483 = { #Labbunu
					province = 5483
					color = { 79 79 79 }
				}
				b_5632 = { #Shêtu
					province = 5632
					color = { 79 79 79 }
				}
				b_5485 = { #Dur-Atanate
					province = 5485
					color = { 79 79 79 }
				}
				b_5630 = { #Egru
					province = 5630
					color = { 79 79 79 }
				}
			}
			c_babiti = {
				color = { 124 89 117 }
				
				b_5489 = { #Babiti
					province = 5489
					color = { 79 79 79 }
				}
				b_6452 = { #Ekishnugal
					province = 6452
					color = { 79 79 79 }
				}
				b_5494 = { #Laglagu
					province = 5494
					color = { 79 79 79 }
				}
				b_5490 = { #Karrishtum
					province = 5490
					color = { 79 79 79 }
				}
				b_5491 = { #Ishku
					province = 5491
					color = { 79 79 79 }
				}
			}
		}
		d_kanara = {
			color = { 91 56 83 }
			
			capital = c_kanara
			
			c_kanara = {
				color = { 84 62 104 }
				
				b_5638 = { #Kanara
					province = 5638
					color = { 79 79 79 }
				}
				b_5637 = { #Elmêshu
					province = 5637
					color = { 79 79 79 }
				}
				b_5639 = { #Atlila
					province = 5639
					color = { 79 79 79 }
				}
				b_5640 = { #Kupru
					province = 5640
					color = { 79 79 79 }
				}
				b_5641 = { #Pîlânish
					province = 5641
					color = { 79 79 79 }
				}
			}
			c_luluban = {
				color = { 87 67 94 }
				
				b_6201 = { #Luluban
					province = 6201
					color = { 79 79 79 }
				}
				b_5650 = { #Pettu
					province = 5650
					color = { 79 79 79 }
				}
				b_5642 = { #Rîbu
					province = 5642
					color = { 79 79 79 }
				}
				b_5649 = { #Dibiru
					province = 5649
					color = { 79 79 79 }
				}
				b_5647 = { #Adbaru
					province = 5647
					color = { 79 79 79 }
				}
				b_5646 = { #Billu
					province = 5646
					color = { 79 79 79 }
				}
			}
			c_dushu = {
				color = { 76 52 88 }
				
				b_5644 = { #Dushû
					province = 5644
					color = { 79 79 79 }
				}
				b_5643 = { #Sâpinu
					province = 5643
					color = { 79 79 79 }
				}
				b_5645 = { #Didallu
					province = 5645
					color = { 79 79 79 }
				}
			}
		}
	}
	k_arrapha = {
		color = { 103 1 1 }
		
		capital = c_arrapha
		
		ai_primary_priority = {
			if = {
				limit = {
					culture = culture:tukri
				}
				add = @correct_culture_primary_score
			}
			else_if = {
				limit = {
					culture = culture:assyrian
				}
				add = @better_than_the_alternatives_score
			}
		}

		d_ahazum = {
			color = { 137 43 41 }
			
			capital = c_ahazum
			
			c_ahazum = {
				color = { 155 30 32 }
				
				b_5480 = { #Ahazum
					province = 5480
					color = { 79 79 79 }
				}
				b_5465 = { #Senkurru
					province = 5465
					color = { 79 79 79 }
				}
				b_5468 = { #Shamuktu
					province = 5468
					color = { 79 79 79 }
				}
				b_5479 = { #Napraru
					province = 5479
					color = { 79 79 79 }
				}
				b_5467 = { #Reshutu
					province = 5467
					color = { 79 79 79 }
				}
			}
			c_shudamelum = {
				color = { 137 1 30 }
				
				b_5487 = { #Shudamelum
					province = 5487
					color = { 79 79 79 }
				}
				b_5482 = { #Masiktu
					province = 5482
					color = { 79 79 79 }
				}
				b_5481 = { #Naklish
					province = 5481
					color = { 79 79 79 }
				}
				b_5488 = { #Kitturu
					province = 5488
					color = { 79 79 79 }
				}
				b_5486 = { #Sahitu
					province = 5486
					color = { 79 79 79 }
				}
			}
		}
		d_qabra = {
			color = { 128 1 1 }
			
			capital = c_qabra
			
			c_qabra = {
				color = { 155 1 25 }
				
				b_5461 = { #Qabra
					province = 5461
					color = { 79 79 79 }
				}
				b_5460 = { #Alluttu
					province = 5460
					color = { 79 79 79 }
				}
				b_5463 = { #Abarakkatu
					province = 5463
					color = { 79 79 79 }
				}
				b_5458 = { #Ardabu
					province = 5458
					color = { 79 79 79 }
				}
				b_5459 = { #Anaku
					province = 5459
					color = { 79 79 79 }
				}
			}
			c_akalutu = {
				color = { 110 1 1 }
				
				b_5462 = { #Akalutu
					province = 5462
					color = { 79 79 79 }
				}
				b_5610 = { #Habâlu
					province = 5610
					color = { 79 79 79 }
				}
				b_5611 = { #Dâsu
					province = 5611
					color = { 79 79 79 }
				}
				b_5466 = { #Karani
					province = 5466
					color = { 79 79 79 }
				}
				b_5612 = { #Egêru
					province = 5612
					color = { 79 79 79 }
				}
			}
		}
		d_sare = {
			color = { 76 1 1 }
			
			capital = c_sare
			
			c_sare = {
				color = { 106 1 14 }
				
				b_5453 = { #Sare
					province = 5453
					color = { 79 79 79 }
				}
				b_5470 = { #Tahtiptu
					province = 5470
					color = { 79 79 79 }
				}
				b_5472 = { #Tullulu
					province = 5472
					color = { 79 79 79 }
				}
				b_5473 = { #Tabish
					province = 5473
					color = { 79 79 79 }
				}
				b_5471 = { #Shussar
					province = 5471
					color = { 79 79 79 }
				}
			}
			c_siksabbum = {
				color = { 81 1 1 }
				
				b_5442 = { #Siksabbum
					province = 5442
					color = { 79 79 79 }
				}
				b_5501 = { #Burumu
					province = 5501
					color = { 79 79 79 }
				}
				b_5445 = { #Ishtartu
					province = 5445
					color = { 79 79 79 }
				}
				b_5443 = { #Limishu
					province = 5443
					color = { 79 79 79 }
				}
				b_5440 = { #Namirtu
					province = 5440
					color = { 79 79 79 }
				}
				b_5444 = { #Kupartu
					province = 5444
					color = { 79 79 79 }
				}
			}
		}
		d_durtaliti = {
			color = { 82 31 33 }
			
			capital = c_durtaliti
			
			c_durtaliti = {
				color = { 96 24 27 }
				
				b_5531 = { #Dur-Taliti
					province = 5531
					color = { 79 79 79 }
				}
				b_5537 = { #Ishpatu
					province = 5537
					color = { 79 79 79 }
				}
				b_5534 = { #Mussaltu
					province = 5534
					color = { 79 79 79 }
				}
				b_5536 = { #Kuzzalu
					province = 5536
					color = { 79 79 79 }
				}
				b_5535 = { #Lawitu
					province = 5535
					color = { 79 79 79 }
				}
				b_5532 = { #Nitish
					province = 5532
					color = { 79 79 79 }
				}
			}
			c_ardamekum = {
				color = { 89 47 44 }
				
				b_5539 = { #Ardamekum
					province = 5539
					color = { 79 79 79 }
				}
				b_5549 = { #Sasiru
					province = 5549
					color = { 79 79 79 }
				}
				b_5548 = { #Zunzunu
					province = 5548
					color = { 79 79 79 }
				}
				b_5547 = { #Zumbu
					province = 5547
					color = { 79 79 79 }
				}
				b_5540 = { #Hubshu
					province = 5540
					color = { 79 79 79 }
				}
				b_5546 = { #Persha'u
					province = 5546
					color = { 79 79 79 }
				}
			}
		}
		d_arrapha = {
			color = { 136 54 25 }
			
			capital = c_arrapha
			
			c_arrapha = {
				color = { 140 46 1 }
				
				b_5478 = { #Arrapha
					province = 5478
					color = { 79 79 79 }
				}
				b_5510 = { #Kunshu
					province = 5510
					color = { 79 79 79 }
				}
				b_5439 = { #Nishatu
					province = 5439
					color = { 79 79 79 }
				}
				b_5441 = { #Musallu
					province = 5441
					color = { 79 79 79 }
				}
				b_5511 = { #Lubushu
					province = 5511
					color = { 79 79 79 }
				}
			}
			c_ushmittu = {
				color = { 102 45 26 }
				
				b_5475 = { #Ushmittu
					province = 5475
					color = { 79 79 79 }
				}
				b_5476 = { #Wabrum
					province = 5476
					color = { 79 79 79 }
				}
				b_5477 = { #Zimbanu
					province = 5477
					color = { 79 79 79 }
				}
				b_5474 = { #Ubaru
					province = 5474
					color = { 79 79 79 }
				}
			}
			c_qarrishu = {
				color = { 146 26 23 }
				
				b_5529 = { #Qarrishu
					province = 5529
					color = { 79 79 79 }
				}
				b_5533 = { #Nidutu
					province = 5533
					color = { 79 79 79 }
				}
				b_5530 = { #Pilanish
					province = 5530
					color = { 79 79 79 }
				}
			}
		}
	}
	k_shusharra = {
		color = { 117 33 16 }
		
		capital = c_susarra
		
		ai_primary_priority = {
			if = {
				limit = {
					culture = culture:tukri
				}
				add = @better_than_the_alternatives_score
			}
		}

		d_susarra = {
			color = { 153 40 36 }
			
			capital = c_susarra
			
			c_susarra = {
				color = { 129 6 10 }
				
				b_5627 = { #Shusharra
					province = 5627
					color = { 79 79 79 }
				}
				b_5624 = { #Washâtu
					province = 5624
					color = { 79 79 79 }
				}
				b_5623 = { #Harrania
					province = 5623
					color = { 79 79 79 }
				}
				b_5622 = { #Lemnutu
					province = 5622
					color = { 79 79 79 }
				}
				b_5628 = { #Kulunnum
					province = 5628
					color = { 79 79 79 }
				}
				b_5629 = { #Hatû
					province = 5629
					color = { 79 79 79 }
				}
			}
			c_anisu = {
				color = { 175 1 1 }
				
				b_5626 = { #Naiâkûtu
					province = 5626
					color = { 79 79 79 }
				}
				b_6736 = { #Tanîpu
					province = 6736
					color = { 79 79 79 }
				}
				b_5625 = { #Mumbium
					province = 5625
					color = { 79 79 79 }
				}
			}
		}
		d_tas = {
			color = { 150 72 56 }
			
			capital = c_zutlum
			
			c_harmasu = {
				color = { 160 79 43 }
				
				b_5283 = { #Harmasu
					province = 5283
					color = { 79 79 79 }
				}
				b_5356 = { #Buaru
					province = 5356
					color = { 79 79 79 }
				}
				b_5282 = { #Unnutu
					province = 5282
					color = { 79 79 79 }
				}
				b_5281 = { #Tabbatis
					province = 5281
					color = { 79 79 79 }
				}
			}
			c_zutlum = {
				color = { 140 60 61 }
				
				b_5280 = { #Takpirtu
					province = 5280
					color = { 79 79 79 }
				}
				b_5284 = { #Zutlum
					province = 5284
					color = { 79 79 79 }
				}
				b_5355 = { #Dummuqtu
					province = 5355
					color = { 79 79 79 }
				}
				b_5613 = { #Hamâsu
					province = 5613
					color = { 79 79 79 }
				}
				b_6674 = { #Qissu
					province = 6674
					color = { 79 79 79 }
				}
			}
		}
		d_hiptuna = {
			color = { 132 1 6 }
			
			capital = c_hiptuna
			
			c_hiptuna = {
				color = { 163 1 1 }
				
				b_5398 = { #Hiptuna
					province = 5398
					color = { 79 79 79 }
				}
				b_5615 = { #Lillatu
					province = 5615
					color = { 79 79 79 }
				}
				b_5396 = { #Amaqtu
					province = 5396
					color = { 79 79 79 }
				}
			}
			c_kurbailu = {
				color = { 150 1 9 }
				
				b_5614 = { #Kurbailu
					province = 5614
					color = { 79 79 79 }
				}
				b_5394 = { #Haduti
					province = 5394
					color = { 79 79 79 }
				}
				b_5395 = { #Minatisu
					province = 5395
					color = { 79 79 79 }
				}
				b_5393 = { #Matimini
					province = 5393
					color = { 79 79 79 }
				}
			}
			c_aridu2 = {
				color = { 122 1 1 }
				
				b_5618 = { #Atidu
					province = 5618
					color = { 79 79 79 }
				}
				b_5617 = { #Taslîtu
					province = 5617
					color = { 79 79 79 }
				}
				b_5616 = { #Qulâlu
					province = 5616
					color = { 79 79 79 }
				}
			}
			c_musi = {
				color = { 166 1 1 }
				
				b_5619 = { #Musi
					province = 5619
					color = { 79 79 79 }
				}
				b_5620 = { #Sashtu
					province = 5620
					color = { 79 79 79 }
				}
				b_5621 = { #Samâku
					province = 5621
					color = { 79 79 79 }
				}
			}
		}
	}
	k_assyria = {
		color = { 94 1 33 }
		
		capital = c_ashur

		ai_primary_priority = {
			if = {
				limit = {
					culture = culture:assyrian
				}
				add = @correct_culture_primary_score
			}
			else_if = {
				limit = {
					culture = culture:tukri
				}
				add = @better_than_the_alternatives_score
			}
		}
		
		d_binanu = {
			color = { 78 1 1 }
			
			capital = c_binanu
			
			c_binanu = {
				color = { 56 5 1 }
				
				b_6677 = { #Binanu
					province = 6677
					color = { 79 79 79 }
				}
				b_5362 = { #Immatema
					province = 5362
					color = { 79 79 79 }
				}
				b_5366 = { #Razama
					province = 5366
					color = { 79 79 79 }
				}
				b_6676 = { #Gapnu
					province = 6676
					color = { 79 79 79 }
				}
				b_5360 = { #Apparu
					province = 5360
					color = { 79 79 79 }
				}
			}
			c_razama = {
				color = { 74 1 1 }
				
				b_5365 = { #Makasu
					province = 5365
					color = { 79 79 79 }
				}
				b_5367 = { #Nalshu
					province = 5367
					color = { 79 79 79 }
				}
				b_5368 = { #Patranu
					province = 5368
					color = { 79 79 79 }
				}
				b_5364 = { #Labitu
					province = 5364
					color = { 79 79 79 }
				}
				b_5363 = { #Kabburu
					province = 5363
					color = { 79 79 79 }
				}
			}
		}
		d_quqahu = {
			color = { 104 1 26 }
			
			capital = c_quqahu
			
			c_quqahu = {
				color = { 115 1 21 }
				
				b_5418 = { #Quqahu
					province = 5418
					color = { 79 79 79 }
				}
				b_5417 = { #Palgu
					province = 5417
					color = { 79 79 79 }
				}
				b_5416 = { #Mutati
					province = 5416
					color = { 79 79 79 }
				}
				b_5419 = { #Arnabu
					province = 5419
					color = { 79 79 79 }
				}
				b_5428 = { #Tuqnu
					province = 5428
					color = { 79 79 79 }
				}
			}
			c_sarratu = {
				color = { 118 1 32 }
				
				b_5425 = { #Sarratu
					province = 5425
					color = { 79 79 79 }
				}
				b_5424 = { #Eleppu
					province = 5424
					color = { 79 79 79 }
				}
				b_5426 = { #Sapadu
					province = 5426
					color = { 79 79 79 }
				}
				b_5420 = { #Anniatu
					province = 5420
					color = { 79 79 79 }
				}
				b_5421 = { #Itu
					province = 5421
					color = { 79 79 79 }
				}
				b_5423 = { #Sabalu
					province = 5423
					color = { 79 79 79 }
				}
			}
		}
		d_kilizi = {
			color = { 67 17 45 }
			
			capital = c_kilizi
			
			c_kilizi = {
				color = { 75 1 37 }
				
				b_5502 = { #Kilizi
					province = 5502
					color = { 79 79 79 }
				}
				b_5452 = { #Darutu
					province = 5452
					color = { 79 79 79 }
				}
				b_5402 = { #Libbi
					province = 5402
					color = { 79 79 79 }
				}
				b_5400 = { #Ramnishu
					province = 5400
					color = { 79 79 79 }
				}
				b_5401 = { #Emedu
					province = 5401
					color = { 79 79 79 }
				}
			}
			c_kasappa = {
				color = { 80 30 76 }
				
				b_5451 = { #Epushtu
					province = 5451
					color = { 79 79 79 }
				}
				b_5449 = { #Gupnu
					province = 5449
					color = { 79 79 79 }
				}
				b_5448 = { #Tuhdu
					province = 5448
					color = { 79 79 79 }
				}
				b_5447 = { #Hishtu
					province = 5447
					color = { 79 79 79 }
				}
				b_5446 = { #Sarraq
					province = 5446
					color = { 79 79 79 }
				}
			}
		}
		d_zabuelu = {
			color = { 137 1 32 }
			
			capital = c_karmulissi
			
			c_karmulissi = {
				color = { 159 1 4 }
				
				b_5285 = { #Kar-Mulissi
					province = 5285
					color = { 79 79 79 }
				}
				b_5293 = { #Imgur-Enlil
					province = 5293
					color = { 79 79 79 }
				}
				b_5292 = { #Zayiranu
					province = 5292
					color = { 79 79 79 }
				}
				b_5295 = { #Ribitu
					province = 5295
					color = { 79 79 79 }
				}
			}
			c_maganuba = {
				color = { 129 1 48 }
				
				b_5287 = { #Maganuba
					province = 5287
					color = { 79 79 79 }
				}
				b_5290 = { #Wapasu
					province = 5290
					color = { 79 79 79 }
				}
				b_5286 = { #Gallabi
					province = 5286
					color = { 79 79 79 }
				}
			}
			c_shibaniba = {
				color = { 147 40 60 }
				
				b_5279 = { #Shibaniba
					province = 5279
					color = { 79 79 79 }
				}
				b_5221 = { #Eberu
					province = 5221
					color = { 79 79 79 }
				}
				b_5357 = { #Halahhu
					province = 5357
					color = { 79 79 79 }
				}
				b_5278 = { #Sahartum
					province = 5278
					color = { 79 79 79 }
				}
			}
			c_paru = {
				color = { 151 1 1 }
				
				b_5390 = { #Urki
					province = 5390
					color = { 79 79 79 }
				}
				b_5391 = { #Ishtissu
					province = 5391
					color = { 79 79 79 }
				}
				b_6675 = { #Par'u
					province = 6675
					color = { 79 79 79 }
				}
				b_5392 = { #Ahaish
					province = 5392
					color = { 79 79 79 }
				}
			}
		}
		d_ashur = {
			color = { 76 1 2 }
			
			capital = c_ashur
			
			c_ashur = {
				color = { 64 1 1 }
				
				b_5303 = { #Assur
					province = 5303
					color = { 79 79 79 }
				}
				b_5300 = { #Ubase
					province = 5300
					color = { 79 79 79 }
				}
				b_5412 = { #Kar-Tukulti
					province = 5412
					color = { 79 79 79 }
				}
				b_5411 = { #Burtu
					province = 5411
					color = { 79 79 79 }
				}
				b_5301 = { #Munnerbu
					province = 5301
					color = { 79 79 79 }
				}
				b_5413 = { #Ekallatum
					province = 5413
					color = { 79 79 79 }
				}
			}
			c_sislu = {
				color = { 99 1 1 }
				
				b_5304 = { #Sislu
					province = 5304
					color = { 79 79 79 }
				}
				b_5359 = { #Ashtapiru
					province = 5359
					color = { 79 79 79 }
				}
				b_5299 = { #Nuaru
					province = 5299
					color = { 79 79 79 }
				}
				b_5358 = { #Dur-Bel
					province = 5358
					color = { 79 79 79 }
				}
			}
			c_amantu = {
				color = { 97 1 20 }
				
				b_5414 = { #Amantu
					province = 5414
					color = { 79 79 79 }
				}
				b_5298 = { #Pirhu
					province = 5298
					color = { 79 79 79 }
				}
				b_5296 = { #Zaku
					province = 5296
					color = { 79 79 79 }
				}
				b_5415 = { #Kasappa
					province = 5415
					color = { 79 79 79 }
				}
				b_6680 = { #Alamûtu
					province = 6680
					color = { 79 79 79 }
				}
			}
			c_armannu = {
				color = { 72 1 1 }
				
				b_6679 = { #Armannu
					province = 6679
					color = { 79 79 79 }
				}
				b_5380 = { #Zirzirru
					province = 5380
					color = { 79 79 79 }
				}
				b_5379 = { #Yartu
					province = 5379
					color = { 79 79 79 }
				}
				b_5354 = { #Erepu
					province = 5354
					color = { 79 79 79 }
				}
			}
		}
		d_nineveh = {
			color = { 120 1 38 }
			
			capital = c_nineveh
			
			c_nineveh = {
				color = { 144 19 34 }
				
				b_5288 = { #Nineveh
					province = 5288
					color = { 79 79 79 }
				}
				b_5352 = { #Adia
					province = 5352
					color = { 79 79 79 }
				}
				b_5353 = { #Gassutu
					province = 5353
					color = { 79 79 79 }
				}
				b_5289 = { #Zikku
					province = 5289
					color = { 79 79 79 }
				}
				b_5277 = { #Tarbisu
					province = 5277
					color = { 79 79 79 }
				}
			}
			c_tamnuma = {
				color = { 102 1 2 }
				
				b_5274 = { #Tamnuma
					province = 5274
					color = { 79 79 79 }
				}
				b_5276 = { #Udina
					province = 5276
					color = { 79 79 79 }
				}
				b_5225 = { #Innidi
					province = 5225
					color = { 79 79 79 }
				}
				b_5275 = { #Qatnu
					province = 5275
					color = { 79 79 79 }
				}
			}
			c_kalhu = {
				color = { 126 1 25 }
				
				b_5294 = { #Kalhu
					province = 5294
					color = { 79 79 79 }
				}
				b_5291 = { #Sasiqani
					province = 5291
					color = { 79 79 79 }
				}
				b_5297 = { #Qalapu
					province = 5297
					color = { 79 79 79 }
				}
				b_5305 = { #Maldahu
					province = 5305
					color = { 79 79 79 }
				}
				b_6678 = { #Dulbu
					province = 6678
					color = { 79 79 79 }
				}
				b_5361 = { #Imbaris
					province = 5361
					color = { 79 79 79 }
				}
			}
			c_tashtiati = {
				color = { 106 30 42 }
				
				b_5251 = { #Tashtiati
					province = 5251
					color = { 79 79 79 }
				}
				b_5351 = { #Hamatum
					province = 5351
					color = { 79 79 79 }
				}
				b_5350 = { #Haparu
					province = 5350
					color = { 79 79 79 }
				}
				b_5349 = { #Zumru
					province = 5349
					color = { 79 79 79 }
				}
				b_5348 = { #Zimru
					province = 5348
					color = { 79 79 79 }
				}
			}
		}
		d_urbilum = {
			color = { 94 1 22 }
			
			capital = c_urbilum
			
			c_urbilum = {
				color = { 93 1 15 }
				
				b_5407 = { #Urbilum
					province = 5407
					color = { 79 79 79 }
				}
				b_5408 = { #Eperish
					province = 5408
					color = { 79 79 79 }
				}
				b_5406 = { #Epish
					province = 5406
					color = { 79 79 79 }
				}
				b_5403 = { #Hudussu
					province = 5403
					color = { 79 79 79 }
				}
				b_5405 = { #Halluptu
					province = 5405
					color = { 79 79 79 }
				}
				b_5404 = { #Hamamu
					province = 5404
					color = { 79 79 79 }
				}
			}
			c_isete = {
				color = { 127 1 28 }
				
				b_5399 = { #Isete
					province = 5399
					color = { 79 79 79 }
				}
				b_5409 = { #Darutu
					province = 5409
					color = { 79 79 79 }
				}
				b_5609 = { #Kubru
					province = 5609
					color = { 79 79 79 }
				}
				b_6454 = { #Sabatu
					province = 6454
					color = { 79 79 79 }
				}
			}
			c_dababi = {
				color = { 105 21 35 }
				
				b_5455 = { #Dababi
					province = 5455
					color = { 79 79 79 }
				}
				b_5457 = { #Assanu
					province = 5457
					color = { 79 79 79 }
				}
				b_5456 = { #Baramu
					province = 5456
					color = { 79 79 79 }
				}
				b_5454 = { #Burtu
					province = 5454
					color = { 79 79 79 }
				}
				b_5464 = { #Rebitu
					province = 5464
					color = { 79 79 79 }
				}
			}
		}
	}
	k_singara = {
		color = { 144 35 33 }
		
		capital = c_andarig
		
		ai_primary_priority = {
			if = {
				limit = {
					OR = {
						culture = culture:haburi
						culture = culture:assyrian
						culture = culture:tukri
					}
				}
				add = @better_than_the_alternatives_score
			}
		}

		d_andarig = {
			color = { 138 1 36 }
			
			capital = c_andarig
			
			c_andarig = {
				color = { 173 1 35 }
				
				b_5310 = { #Andarig
					province = 5310
					color = { 79 79 79 }
				}
				b_5313 = { #Ibru
					province = 5313
					color = { 79 79 79 }
				}
				b_5311 = { #Izibtu
					province = 5311
					color = { 79 79 79 }
				}
			}
			c_singara = {
				color = { 122 24 50 }
				
				b_5308 = { #Singara
					province = 5308
					color = { 79 79 79 }
				}
				b_5312 = { #Metama
					province = 5312
					color = { 79 79 79 }	
				}
				b_5374 = { #Takbaru
					province = 5374
					color = { 79 79 79 }
				}
				b_5309 = { #Kulbabu
					province = 5309
					color = { 79 79 79 }
				}
				b_5338 = { #Ragabu
					province = 5338
					color = { 79 79 79 }
				}
				b_5373 = { #Sahittu
					province = 5373
					color = { 79 79 79 }
				}
			}
			c_qattara = {
				color = { 149 1 32 }
				
				b_5376 = { #Qattara
					province = 5376
					color = { 79 79 79 }
				}
				b_5377 = { #Umninu
					province = 5377
					color = { 79 79 79 }
				}
				b_5387 = { #Masallu
					province = 5387
					color = { 79 79 79 }
				}
				b_5375 = { #Shurshudu
					province = 5375
					color = { 79 79 79 }
				}
				b_2273 = { #Tesû
					province = 2273
					color = { 79 79 79 }
				}
			}
		}
		d_nisutu = {
			color = { 123 1 1 }
			
			capital = c_nisutu
			
			c_nisutu = {
				color = { 145 38 15 }
				
				b_5246 = { #Nisutu
					province = 5246
					color = { 79 79 79 }
				}
				b_5190 = { #Agammu
					province = 5190
					color = { 79 79 79 }
				}
				b_5248 = { #Liddatu
					province = 5248
					color = { 79 79 79 }
				}
			}
			c_zandiqu = {
				color = { 94 1 1 }
				
				b_5241 = { #Zandiqu
					province = 5241
					color = { 79 79 79 }
				}
				b_5340 = { #Suknusu
					province = 5340
					color = { 79 79 79 }
				}
				b_5242 = { #Supalu
					province = 5242
					color = { 79 79 79 }
				}
				b_5342 = { #Tabrati
					province = 5342
					color = { 79 79 79 }
				} 
				b_5239 = { #Upputtu
					province = 5239
					color = { 79 79 79 }
				}
				b_5240 = { #Wasamu
					province = 5240
					color = { 79 79 79 }
				}
			}
			c_maluku = {
				color = { 149 1 1 }
				
				b_5270 = { #Maluku
					province = 5270
					color = { 79 79 79 }
				}
				b_5269 = { #Eqlu
					province = 5269
					color = { 79 79 79 }
				}
				b_5268 = { #Kaskasu
					province = 5268
					color = { 79 79 79 }
				}
				b_5222 = { #Gizillu
					province = 5222
					color = { 79 79 79 }
				}
				b_5247 = { #Murnisqu
					province = 5247
					color = { 79 79 79 }
				}
			}
		}
		d_tartara = {
			color = { 122 73 60 }
			
			capital = c_durbel
			
			c_durbel = {
				color = { 94 56 45 }
				
				b_5385 = { #Nasiu
					province = 5385
					color = { 79 79 79 }
				}
				b_2318 = { #Qinnutu
					province = 2318
					color = { 79 79 79 }
				}
				b_5384 = { #Shuatina
					province = 5384
					color = { 79 79 79 }
				}
				b_5378 = { #Wabrutum
					province = 5378
					color = { 79 79 79 }
				}
				b_5386 = { #Munziqu
					province = 5386
					color = { 79 79 79 }
				}
			}
			c_ekallati = {
				color = { 140 77 78 }
				
				b_5381 = { #Ekallati
					province = 5381
					color = { 79 79 79 }
				}
				b_151 = { #Muntukû
					province = 151
					color = { 79 79 79 }
				}
				b_5383 = { #Tarbutu
					province = 5383
					color = { 79 79 79 }
				}
				b_5382 = { #Shanduwatum
					province = 5382
					color = { 79 79 79 }
				}
			}
		}
		d_apku = {
			color = { 189 1 58 }
			
			capital = c_apku
			
			c_apku = {
				color = { 196 1 45 }
				
				b_5343 = { #Apku
					province = 5343
					color = { 79 79 79 }
				}
				b_5347 = { #Yanumis
					province = 5347
					color = { 79 79 79 }
				}
				b_5370 = { #Rapaqu
					province = 5370
					color = { 79 79 79 }
				}
				b_5369 = { #Qiriru
					province = 5369
					color = { 79 79 79 }
				}
			}
			c_karana = {
				color = { 175 1 34 }
				
				b_5372 = { #Karana
					province = 5372
					color = { 79 79 79 }
				}
				b_5345 = { #Urranu
					province = 5345
					color = { 79 79 79 }
				}
				b_5371 = { #Salqu
					province = 5371
					color = { 79 79 79 }
				}
				b_5341 = { #Tadinu
					province = 5341
					color = { 79 79 79 }
				}
				b_5346 = { #Warkitu
					province = 5346
					color = { 79 79 79 }
				}
			}
			c_balata = {
				color = { 198 1 28 }
				
				b_5271 = { #Balata
					province = 5271
					color = { 79 79 79 }
				}
				b_5273 = { #Pazris
					province = 5273
					color = { 79 79 79 }
				}
				b_5272 = { #Naspittu
					province = 5272
					color = { 79 79 79 }
				}
				b_5344 = { #Tapsum
					province = 5344
					color = { 79 79 79 }
				}
			}
		}
	}
	k_halziatbari = {
		color = { 92 1 1 }
		
		capital = c_buaru
		
		ai_primary_priority = {
			if = {
				limit = {
					OR = {
						culture = culture:haburi
						culture = culture:tukri
					}
				}
				add = @better_than_the_alternatives_score
			}
		}
		
		d_haburatum = {
			color = { 78 1 1 }
			
			capital = c_haburatum
			
			c_haburatum = {
				color = { 103 15 10 }
				
				b_5257 = { #Haburatum
					province = 5257
					color = { 79 79 79 }
				}
				b_5886 = { #Sabiresu
					province = 5886
					color = { 79 79 79 }
				}
				b_5758 = { #Lumnu
					province = 5758
					color = { 79 79 79 }
				}
				b_5759 = { #Niziqtu
					province = 5759
					color = { 79 79 79 }
				}
				b_5762 = { #Shabbu
					province = 5762
					color = { 79 79 79 }
				}
			}
			c_kipshuna = {
				color = { 81 1 1 }
				
				b_6445 = { #Kipshuna
					province = 6445
					color = { 79 79 79 }
				}
				b_5887 = { #Adappu
					province = 5887
					color = { 79 79 79 }
				}
				b_5888 = { #Ashbu
					province = 5888
					color = { 79 79 79 }
				}
				b_5890 = { #Ashtammu
					province = 5890
					color = { 79 79 79 }
				}
				b_5889 = { #Ashur-iqisha
					province = 5889
					color = { 79 79 79 }
				}
				b_5891 = { #Kultâru
					province = 5891
					color = { 79 79 79 }
				}
			}
		}
		d_qana = {
			color = { 98 1 2 }
			
			capital = c_qana
			
			c_qana = {
				color = { 96 16 1 }
				
				b_5907 = { #Qana
					province = 5907
					color = { 79 79 79 }
				}
				b_5765 = { #Tasmertu
					province = 5765
					color = { 79 79 79 }
				}
				b_5763 = { #Rûbtu
					province = 5763
					color = { 79 79 79 }
				}
				b_5908 = { #Bashâmu
					province = 5908
					color = { 79 79 79 }
				}
			}
			c_ressubnat = {
				color = { 109 1 1 }
				
				b_5764 = { #Res-Subnar
					province = 5764
					color = { 79 79 79 }
				}
				b_5767 = { #Tubbâti
					province = 5767
					color = { 79 79 79 }
				}
				b_5915 = { #Kalum
					province = 5915
					color = { 79 79 79 }
				}
				b_5766 = { #Takâlu
					province = 5766
					color = { 79 79 79 }
				}
			}
			c_ukku = {
				color = { 86 1 1 }
				
				b_5859 = { #Ukku
					province = 5859
					color = { 79 79 79 }
				}
				b_5855 = { #Qa'âlu
					province = 5855
					color = { 79 79 79 }
				}
			}
			c_masiktu = {
				color = { 71 9 8 }
				
				b_5229 = { #Masiktu
					province = 5229
					color = { 79 79 79 }
				}
				b_5761 = { #Pirittu
					province = 5761
					color = { 79 79 79 }
				}
				b_5760 = { #Pardish
					province = 5760
					color = { 79 79 79 }
				}
			}
		}
		d_tille = {
			color = { 141 1 1 }
			
			capital = c_tille
			
			c_tille = {
				color = { 128 1 1 }
				
				b_445 = { #Tille
					province = 445
					color = { 79 79 79 }
				}
				b_420 = { #Rasmu
					province = 420
					color = { 79 79 79 }
				}
				b_5243 = { #Restu
					province = 5243
					color = { 79 79 79 }
				}
				b_5244 = { #Qarnu
					province = 5244
					color = { 79 79 79 }
				}
				b_5245 = { #Pethallu
					province = 5245
					color = { 79 79 79 }
				}
				b_1865 = { #Karâr
					province = 1865
					color = { 79 79 79 }
				}
			}
			c_sibirri = {
				color = { 119 1 1 }
				
				b_5255 = { #Sibirri
					province = 5255
					color = { 79 79 79 }
				}
				b_5249 = { #Kugru
					province = 5249
					color = { 79 79 79 }
				}
				b_5223 = { #Hahhuratta
					province = 5223
					color = { 79 79 79 }
				}
				b_5267 = { #Istaruta
					province = 5267
					color = { 79 79 79 }
				}
			}
		}
		d_halziatbari = {
			color = { 97 43 44 }
			
			capital = c_habatu
			
			c_habatu = {
				color = { 77 19 23 }
				
				b_5224 = { #Habatu
					province = 5224
					color = { 79 79 79 }
				}
				b_5261 = { #Hasum
					province = 5261
					color = { 79 79 79 }
				}
				b_5265 = { #Iltanu
					province = 5265
					color = { 79 79 79 }
				}
				b_5260 = { #Gigunu
					province = 5260
					color = { 79 79 79 }
				}
				b_5389 = { #Kubshu
					province = 5389
					color = { 79 79 79 }
				}
			}
			c_buaru = {
				color = { 117 51 45 }
				
				b_5256 = { #Bu'aru
					province = 5256
					color = { 79 79 79 }
				}
				b_5258 = { #Danniti
					province = 5258
					color = { 79 79 79 }
				}
				b_5259 = { #Attina
					province = 5259
					color = { 79 79 79 }
				}
				b_5266 = { #Sibtu
					province = 5266
					color = { 79 79 79 }
				}
			}
			c_talmusa = {
				color = { 95 44 37 }
				
				b_5264 = { #Talmusa
					province = 5264
					color = { 79 79 79 }
				}
				b_5263 = { #Barari
					province = 5263
					color = { 79 79 79 }
				}
				b_5262 = { #Mahar
					province = 5262
					color = { 79 79 79 }
				}
				b_5388 = { #Labaris
					province = 5388
					color = { 79 79 79 }
				}
			}
		}
	}
}