﻿object={
	name="bridge 01"
	render_pass=MapUnderWater
	clamp_to_water_level=no
	generated_content=no
	layer="temp_layer"
	pdxmesh="bridge_01_mesh"
	count=270
	transform="4414.230469 1.786438 2522.800781 0.000000 0.733715 0.000000 0.679457 1.326934 1.326934 1.326934
4401.147461 1.778381 2490.299561 0.000000 0.827952 0.000000 0.560799 1.326934 1.326934 1.326934
4423.997070 2.008850 2443.169922 0.000000 0.353671 0.000000 0.935369 1.326934 1.326934 1.326934
4464.194336 1.870910 2415.043213 0.000000 0.447012 0.000000 0.894528 1.326934 1.326934 1.326934
4542.028320 2.008850 2363.423096 0.000000 0.253178 0.000000 0.967419 1.326934 1.326934 1.326934
4596.349121 2.010803 2322.428711 0.000000 0.378887 0.000000 0.925443 1.326934 1.326934 1.326934
4645.499023 2.010803 2292.647217 0.000000 0.378887 0.000000 0.925443 1.326934 1.326934 1.326934
4741.455566 1.519836 2231.917969 0.000000 0.012616 0.000000 0.999920 1.326934 1.326934 1.326934
4808.759766 2.100158 2181.060303 0.000000 0.673455 0.000000 0.739227 1.326934 1.326934 1.326934
2225.931152 1.640685 2110.182129 0.000000 -0.919953 0.000000 -0.392029 1.213650 1.213650 1.213650
2188.546875 2.956847 2072.473877 0.000000 -0.907959 0.000000 -0.419058 1.213650 1.213650 1.213650
2142.201416 3.076720 2038.438599 0.000000 -0.986436 0.000000 -0.164144 1.213650 1.213650 1.213650
2050.241699 1.964538 2023.497070 0.000000 -0.471727 0.000000 -0.881745 1.217273 1.217273 1.217273
2079.086670 2.331359 1927.456787 0.000000 -0.790286 0.000000 -0.612737 1.323430 1.323430 1.323430
666.572144 1.459777 3709.974365 0.000000 -0.628270 0.000000 -0.777995 1.133649 1.133649 1.133649
2068.497070 2.445129 1943.840210 0.000000 -0.586599 0.000000 -0.809877 1.133649 1.133649 1.133649
2081.478271 2.078552 1941.854126 0.000000 -0.750452 0.000000 -0.660924 1.213650 1.213650 1.213650
2097.049561 2.221252 1958.412598 0.000000 -0.983756 0.000000 -0.179507 1.213650 1.213650 1.213650
2081.788818 1.274963 1961.275757 0.000000 -0.517978 0.000000 -0.855393 1.213650 1.213650 1.213650
2083.843994 3.100402 1991.048706 0.000000 -0.741223 0.000000 -0.671258 1.213650 1.213650 1.213650
2070.854736 2.045226 1985.712769 0.000000 -0.561993 0.000000 -0.827142 1.213650 1.213650 1.213650
2033.697021 2.732604 1989.850708 0.000000 -0.250824 0.000000 -0.968032 1.213650 1.213650 1.213650
1997.513062 2.483093 2029.282715 0.000000 -0.361219 0.000000 -0.932481 1.213650 1.213650 1.213650
1956.494019 2.442077 2046.963501 0.000000 -0.657875 0.000000 -0.753127 1.213650 1.213650 1.213650
2005.291870 2.555114 2092.208984 0.000000 -0.512473 0.000000 -0.858703 1.213650 1.213650 1.213650
2034.865356 2.390807 2048.103516 0.000000 -0.436177 0.000000 -0.899861 1.213650 1.213650 1.213650
2050.895508 2.685241 2047.151489 0.000000 -0.865860 0.000000 -0.500287 1.213650 1.213650 1.213650
2063.578613 2.267028 2092.770508 0.000000 -0.820649 0.000000 -0.571432 1.213650 1.213650 1.213650
2124.613525 2.437682 2112.349365 0.000000 -0.763808 0.000000 -0.645443 1.213650 1.213650 1.213650
2114.000732 2.522887 2055.909180 0.000000 -0.700577 0.000000 -0.713576 1.213650 1.213650 1.213650
2095.895996 3.021911 2015.750488 0.000000 -0.826517 0.000000 -0.562912 1.213650 1.213650 1.213650
2115.446289 2.040466 1999.712769 0.000000 -0.763296 0.000000 -0.646049 1.213650 1.213650 1.213650
2127.398926 2.231750 1989.845093 0.000000 -0.945808 0.000000 -0.324727 1.213650 1.213650 1.213650
2108.947021 1.984679 1976.842163 0.000000 -0.823412 0.000000 -0.567443 1.213650 1.213650 1.213650
2122.669678 1.496398 1967.641724 0.000000 -0.994044 0.000000 -0.108979 1.213650 1.213650 1.213650
2214.430908 2.768615 2024.945435 0.000000 -0.999427 0.000000 -0.033842 1.213650 1.213650 1.213650
2182.871582 2.181213 1995.646118 0.000000 -0.950681 0.000000 -0.310171 1.213650 1.213650 1.213650
2167.503662 2.442809 2007.604858 0.000000 -0.926736 0.000000 -0.375713 1.213650 1.213650 1.213650
2201.698730 3.149108 2046.513672 0.000000 -0.923784 0.000000 -0.382914 1.213650 1.213650 1.213650
2246.612793 2.485046 2080.134033 0.000000 -0.946115 0.000000 -0.323832 1.213650 1.213650 1.213650
2259.792725 2.485046 2060.348389 0.000000 -0.970536 0.000000 -0.240956 1.213650 1.213650 1.213650
2332.640625 2.027282 2045.837036 0.000000 -0.995100 0.000000 -0.098872 1.213650 1.213650 1.213650
2294.272949 2.464660 2027.168945 0.000000 -0.911720 0.000000 -0.410811 1.213650 1.213650 1.213650
2257.759766 2.801818 2007.945923 0.000000 -0.978920 0.000000 -0.204245 1.213650 1.213650 1.213650
2194.246338 2.887878 1980.674683 0.000000 0.212487 0.000000 -0.977164 1.213650 1.213650 1.213650
2148.980957 2.983703 1945.261963 0.000000 0.876594 0.000000 0.481230 1.213650 1.213650 1.213650
2123.569336 2.305114 1895.486450 0.000000 -0.303532 0.000000 0.952821 1.344379 1.344379 1.344379
2109.666748 1.976257 1891.302856 0.000000 0.217678 0.000000 0.976021 1.430317 1.430317 1.430317
2116.859375 3.315978 1878.437378 0.000000 0.384669 0.000000 0.923054 1.549438 1.549438 1.549438
2138.980225 2.774352 1829.401367 0.000000 0.854860 0.000000 0.518858 1.415397 1.415397 1.415397
2137.598145 2.218688 1764.689819 0.000000 0.460094 0.000000 0.887870 1.415397 1.415397 1.415397
2116.908447 2.871398 1710.979736 0.000000 0.906247 0.000000 0.422748 1.415397 1.415397 1.415397
2089.809570 2.237609 1693.580566 0.000000 0.935132 0.000000 0.354300 1.415397 1.415397 1.415397
2074.518311 2.720031 1645.437012 0.000000 0.807567 0.000000 0.589775 1.415397 1.415397 1.415397
2067.238525 2.656921 1606.187988 0.000000 0.706794 0.000000 0.707419 1.415397 1.415397 1.415397
2053.147217 2.658141 1537.795654 0.000000 0.439161 0.000000 0.898409 1.415397 1.415397 1.415397
2065.969727 2.541076 1494.864990 0.000000 0.671016 0.000000 0.741443 1.415397 1.415397 1.415397
2067.679199 2.727233 1428.284424 0.000000 0.645240 0.000000 0.763980 1.415397 1.415397 1.415397
2127.477539 2.087096 1387.151123 0.000000 0.399520 0.000000 0.916724 1.415397 1.415397 1.415397
2157.588867 2.215759 1354.889526 0.000000 0.354671 0.000000 0.934991 1.415397 1.415397 1.415397
2183.226074 2.278136 1326.633789 0.000000 0.475361 0.000000 0.879791 1.415397 1.415397 1.415397
2218.859619 2.758605 1280.982300 0.000000 0.613877 0.000000 0.789401 1.415397 1.415397 1.415397
2269.733154 2.741637 1213.983032 0.000000 0.565590 0.000000 0.824687 1.415397 1.415397 1.415397
2307.627197 2.191100 1180.119263 0.000000 0.235304 0.000000 0.971922 1.461055 1.461055 1.461055
2352.753906 2.355651 1196.690674 0.000000 0.019940 0.000000 0.999801 1.461055 1.461055 1.461055
2397.837158 2.145690 1199.579468 0.000000 0.415100 0.000000 0.909776 1.461055 1.461055 1.461055
2399.034180 2.395324 1140.535522 0.000000 -0.209931 0.000000 0.977716 1.300380 1.300380 1.300380
2357.821533 2.778503 1108.088013 0.000000 -0.127507 0.000000 0.991837 1.300380 1.300380 1.300380
2372.433105 2.375060 1048.877808 0.000000 0.358406 0.000000 0.933566 1.300380 1.300380 1.300380
2414.074463 2.373840 1019.622559 0.000000 0.436499 0.000000 0.899704 1.300380 1.300380 1.300380
2418.143555 2.942626 992.139832 0.000000 0.815166 0.000000 0.579227 1.300380 1.300380 1.300380
2424.777100 2.882873 926.465088 0.000000 0.815166 0.000000 0.579227 1.300380 1.300380 1.300380
2422.629395 1.780090 876.763733 0.000000 0.901825 0.000000 0.432100 1.300380 1.300380 1.300380
5110.633789 1.889220 2174.872803 0.000000 0.782039 0.000000 0.623228 1.300380 1.300380 1.300380
5076.536621 1.889220 2222.650635 0.000000 0.619762 0.000000 0.784789 1.134958 1.134958 1.134958
4855.469727 2.100158 2136.323975 0.000000 0.523702 0.000000 0.851901 1.218555 1.218555 1.218555
4809.855469 1.293029 2086.289551 0.000000 0.325658 0.000000 0.945487 1.218555 1.218555 1.218555
4775.657227 2.069641 2117.392822 0.000000 0.522765 0.000000 0.852476 1.218555 1.218555 1.218555
4741.604004 1.483459 2135.398438 0.000000 0.106651 0.000000 0.994296 1.218555 1.218555 1.218555
4681.658203 1.483459 2149.099121 0.000000 0.614382 0.000000 0.789008 1.218555 1.218555 1.218555
4693.541016 1.483459 2138.700195 0.000000 0.158250 0.000000 0.987399 1.218555 1.218555 1.218555
4679.255371 2.821350 2138.862061 0.000000 -0.491181 0.000000 0.871057 1.218555 1.218555 1.218555
4690.481445 1.300354 2097.203369 0.000000 -0.625568 0.000000 0.780169 1.218555 1.218555 1.218555
4627.646973 2.102355 2088.101807 0.000000 0.596017 0.000000 0.802971 1.218555 1.218555 1.218555
4165.448242 0.874572 2479.917236 0.000000 0.081148 0.000000 0.996702 1.233062 1.233062 1.233062
4225.537109 1.678039 2466.750732 0.000000 -0.107883 0.000000 0.994163 1.233062 1.233062 1.233062
4290.586426 2.671447 2452.995605 0.000000 0.109218 0.000000 0.994018 1.233062 1.233062 1.233062
4342.737305 1.823791 2416.955566 0.000000 -0.199339 0.000000 0.979930 1.161784 1.161784 1.161784
4379.187988 1.497375 2393.685547 0.000000 0.121161 0.000000 0.992633 1.161784 1.161784 1.161784
4367.593750 1.748596 2398.686768 0.000000 0.413477 0.000000 0.910514 1.161784 1.161784 1.161784
4370.558594 0.493469 2385.936768 0.000000 0.719216 0.000000 0.694786 1.161784 1.161784 1.161784
4370.176758 2.196594 2354.514404 0.000000 0.698643 0.000000 0.715471 1.161784 1.161784 1.161784
4377.908203 1.997375 2362.933105 0.000000 0.076281 0.000000 0.997086 1.161784 1.161784 1.161784
4451.270508 2.229797 2351.474854 0.000000 0.440355 0.000000 0.897824 1.161784 1.161784 1.161784
4443.984863 1.895080 2368.237793 0.000000 0.487653 0.000000 0.873037 1.161784 1.161784 1.161784
4456.162598 1.954650 2360.709473 0.000000 0.016601 0.000000 0.999862 1.124635 1.124635 1.124635
4511.832031 1.495910 2329.375488 0.000000 0.208123 0.000000 0.978102 1.218555 1.218555 1.218555
4497.896973 1.871643 2301.363525 0.000000 0.417640 0.000000 0.908612 1.218555 1.218555 1.218555
4623.701660 1.742980 2202.287354 0.000000 0.199219 0.000000 0.979954 1.218555 1.218555 1.218555
4555.183105 2.423156 2283.341553 0.000000 0.522052 0.000000 0.852913 1.218555 1.218555 1.218555
4563.801270 2.574035 2275.420166 0.000000 -0.005554 0.000000 0.999984 1.218555 1.218555 1.218555
4548.599121 2.368957 2271.547363 0.000000 -0.999123 0.000000 -0.041862 1.218555 1.218555 1.218555
4557.945313 1.703186 2265.129395 0.000000 -0.768442 0.000000 0.639918 1.218555 1.218555 1.218555
4554.693848 2.234191 2239.900635 0.000000 -0.719979 0.000000 0.693996 1.218555 1.218555 1.218555
4546.658203 2.791320 2250.786621 0.000000 -0.951775 0.000000 0.306795 1.218555 1.218555 1.218555
4511.195313 2.305725 2268.509033 0.000000 -0.965090 0.000000 0.261919 1.218555 1.218555 1.218555
4486.515137 1.859191 2249.816162 0.000000 -0.942604 0.000000 0.333911 1.218555 1.218555 1.218555
4466.505371 1.992736 2281.369385 0.000000 -0.906744 0.000000 0.421681 1.218555 1.218555 1.218555
4468.217285 1.776672 2289.520752 0.000000 -0.950358 0.000000 -0.311157 1.218555 1.218555 1.218555
4459.740723 1.980041 2287.150391 0.000000 -0.974541 0.000000 0.224208 1.218555 1.218555 1.218555
4412.443848 2.138244 2331.462646 0.000000 -0.999797 0.000000 -0.020145 1.218555 1.218555 1.218555
4397.558105 2.013732 2338.806641 0.000000 -0.880234 0.000000 0.474540 1.218555 1.218555 1.218555
4407.632324 1.799621 2324.450684 0.000000 -0.682308 0.000000 0.731064 1.218555 1.218555 1.218555
4416.286133 1.637756 2295.295166 0.000000 -0.713253 0.000000 0.700907 1.218555 1.218555 1.218555
4382.842773 1.436828 2283.508789 0.000000 -0.826350 0.000000 0.563157 1.218555 1.218555 1.218555
4412.669434 1.906311 2241.108154 0.000000 -0.971544 0.000000 0.236859 1.218555 1.218555 1.218555
4422.149902 2.104553 2244.840820 0.000000 -0.800587 0.000000 -0.599216 1.218555 1.218555 1.218555
4423.866699 1.531311 2232.856934 0.000000 -0.306733 0.000000 -0.951796 1.218555 1.218555 1.218555
4492.812500 1.948303 2205.678223 0.000000 0.171881 0.000000 -0.985118 1.218555 1.218555 1.218555
4500.722168 1.999328 2213.754639 0.000000 0.669178 0.000000 -0.743102 1.218555 1.218555 1.218555
4504.580078 1.999328 2204.880859 0.000000 0.953080 0.000000 -0.302717 1.218555 1.218555 1.218555
4565.606445 1.515686 2174.304199 0.000000 0.979713 0.000000 -0.200402 1.218555 1.218555 1.218555
4592.645996 1.515686 2184.793457 0.000000 0.922099 0.000000 -0.386953 1.218555 1.218555 1.218555
4601.924316 2.407531 2141.758789 0.000000 0.509511 0.000000 -0.860464 1.218555 1.218555 1.218555
4590.716797 2.060119 2140.051514 0.000000 0.916357 0.000000 -0.400363 1.218555 1.218555 1.218555
4598.923340 2.060119 2130.924072 0.000000 0.807745 0.000000 -0.589532 1.218555 1.218555 1.218555
4664.652832 2.203918 2074.090820 0.000000 -0.989947 0.000000 -0.141435 1.218555 1.218555 1.218555
4650.923340 2.203918 2072.136719 0.000000 -0.997516 0.000000 0.070433 1.218555 1.218555 1.218555
4659.782715 2.203918 2064.180420 0.000000 -0.789487 0.000000 0.613767 1.218555 1.218555 1.218555
4662.371094 1.552795 2043.675293 0.000000 -0.670667 0.000000 0.741759 1.218555 1.218555 1.218555
4670.266113 1.552795 2049.167725 0.000000 0.100659 0.000000 0.994921 1.218555 1.218555 1.218555
4736.761230 1.552795 2021.798218 0.000000 -0.475833 0.000000 0.879536 1.218555 1.218555 1.218555
4737.472656 1.552795 2035.032104 0.000000 0.269279 0.000000 0.963062 1.218555 1.218555 1.218555
4755.559082 1.552795 2029.025269 0.000000 -0.004639 0.000000 0.999989 1.218555 1.218555 1.218555
4688.953125 1.552795 2000.872314 0.000000 0.142700 0.000000 0.989766 1.218555 1.218555 1.218555
0.000000 0.000000 0.000000 0.000000 0.000000 0.000000 1.000000 1.000000 1.000000 1.000000
0.000000 0.000000 0.000000 0.000000 0.000000 0.000000 1.000000 1.000000 1.000000 1.000000
0.000000 0.000000 0.000000 0.000000 0.000000 0.000000 1.000000 1.000000 1.000000 1.000000
0.000000 0.000000 0.000000 0.000000 0.000000 0.000000 1.000000 1.000000 1.000000 1.000000
0.000000 0.000000 0.000000 0.000000 0.000000 0.000000 1.000000 1.000000 1.000000 1.000000
0.000000 0.000000 0.000000 0.000000 0.000000 0.000000 1.000000 1.000000 1.000000 1.000000
0.000000 0.000000 0.000000 0.000000 0.000000 0.000000 1.000000 1.000000 1.000000 1.000000
0.000000 0.000000 0.000000 0.000000 0.000000 0.000000 1.000000 1.000000 1.000000 1.000000
0.000000 0.000000 0.000000 0.000000 0.000000 0.000000 1.000000 1.000000 1.000000 1.000000
0.000000 0.000000 0.000000 0.000000 0.000000 0.000000 1.000000 1.000000 1.000000 1.000000
0.000000 0.000000 0.000000 0.000000 0.000000 0.000000 1.000000 1.000000 1.000000 1.000000
0.000000 0.000000 0.000000 0.000000 0.000000 0.000000 1.000000 1.000000 1.000000 1.000000
0.000000 0.000000 0.000000 0.000000 0.000000 0.000000 1.000000 1.000000 1.000000 1.000000
0.000000 0.000000 0.000000 0.000000 0.000000 0.000000 1.000000 1.000000 1.000000 1.000000
0.000000 0.000000 0.000000 0.000000 0.000000 0.000000 1.000000 1.000000 1.000000 1.000000
0.000000 0.000000 0.000000 0.000000 0.000000 0.000000 1.000000 1.000000 1.000000 1.000000
0.000000 0.000000 0.000000 0.000000 0.000000 0.000000 1.000000 1.000000 1.000000 1.000000
0.000000 0.000000 0.000000 0.000000 0.000000 0.000000 1.000000 1.000000 1.000000 1.000000
0.000000 0.000000 0.000000 0.000000 0.000000 0.000000 1.000000 1.000000 1.000000 1.000000
0.000000 0.000000 0.000000 0.000000 0.000000 0.000000 1.000000 1.000000 1.000000 1.000000
0.000000 0.000000 0.000000 0.000000 0.000000 0.000000 1.000000 1.000000 1.000000 1.000000
0.000000 0.000000 0.000000 0.000000 0.000000 0.000000 1.000000 1.000000 1.000000 1.000000
0.000000 0.000000 0.000000 0.000000 0.000000 0.000000 1.000000 1.000000 1.000000 1.000000
0.000000 0.000000 0.000000 0.000000 0.000000 0.000000 1.000000 1.000000 1.000000 1.000000
0.000000 0.000000 0.000000 0.000000 0.000000 0.000000 1.000000 1.000000 1.000000 1.000000
0.000000 0.000000 0.000000 0.000000 0.000000 0.000000 1.000000 1.000000 1.000000 1.000000
0.000000 0.000000 0.000000 0.000000 0.000000 0.000000 1.000000 1.000000 1.000000 1.000000
0.000000 0.000000 0.000000 0.000000 0.000000 0.000000 1.000000 1.000000 1.000000 1.000000
0.000000 0.000000 0.000000 0.000000 0.000000 0.000000 1.000000 1.000000 1.000000 1.000000
0.000000 0.000000 0.000000 0.000000 0.000000 0.000000 1.000000 1.000000 1.000000 1.000000
0.000000 0.000000 0.000000 0.000000 0.000000 0.000000 1.000000 1.000000 1.000000 1.000000
0.000000 0.000000 0.000000 0.000000 0.000000 0.000000 1.000000 1.000000 1.000000 1.000000
0.000000 0.000000 0.000000 0.000000 0.000000 0.000000 1.000000 1.000000 1.000000 1.000000
0.000000 0.000000 0.000000 0.000000 0.000000 0.000000 1.000000 1.000000 1.000000 1.000000
0.000000 0.000000 0.000000 0.000000 0.000000 0.000000 1.000000 1.000000 1.000000 1.000000
0.000000 0.000000 0.000000 0.000000 0.000000 0.000000 1.000000 1.000000 1.000000 1.000000
0.000000 0.000000 0.000000 0.000000 0.000000 0.000000 1.000000 1.000000 1.000000 1.000000
0.000000 0.000000 0.000000 0.000000 0.000000 0.000000 1.000000 1.000000 1.000000 1.000000
0.000000 0.000000 0.000000 0.000000 0.000000 0.000000 1.000000 1.000000 1.000000 1.000000
0.000000 0.000000 0.000000 0.000000 0.000000 0.000000 1.000000 1.000000 1.000000 1.000000
0.000000 0.000000 0.000000 0.000000 0.000000 0.000000 1.000000 1.000000 1.000000 1.000000
0.000000 0.000000 0.000000 0.000000 0.000000 0.000000 1.000000 1.000000 1.000000 1.000000
0.000000 0.000000 0.000000 0.000000 0.000000 0.000000 1.000000 1.000000 1.000000 1.000000
0.000000 0.000000 0.000000 0.000000 0.000000 0.000000 1.000000 1.000000 1.000000 1.000000
0.000000 0.000000 0.000000 0.000000 0.000000 0.000000 1.000000 1.000000 1.000000 1.000000
0.000000 0.000000 0.000000 0.000000 0.000000 0.000000 1.000000 1.000000 1.000000 1.000000
0.000000 0.000000 0.000000 0.000000 0.000000 0.000000 1.000000 1.000000 1.000000 1.000000
0.000000 0.000000 0.000000 0.000000 0.000000 0.000000 1.000000 1.000000 1.000000 1.000000
0.000000 0.000000 0.000000 0.000000 0.000000 0.000000 1.000000 1.000000 1.000000 1.000000
0.000000 0.000000 0.000000 0.000000 0.000000 0.000000 1.000000 1.000000 1.000000 1.000000
0.000000 0.000000 0.000000 0.000000 0.000000 0.000000 1.000000 1.000000 1.000000 1.000000
0.000000 0.000000 0.000000 0.000000 0.000000 0.000000 1.000000 1.000000 1.000000 1.000000
0.000000 0.000000 0.000000 0.000000 0.000000 0.000000 1.000000 1.000000 1.000000 1.000000
0.000000 0.000000 0.000000 0.000000 0.000000 0.000000 1.000000 1.000000 1.000000 1.000000
0.000000 0.000000 0.000000 0.000000 0.000000 0.000000 1.000000 1.000000 1.000000 1.000000
0.000000 0.000000 0.000000 0.000000 0.000000 0.000000 1.000000 1.000000 1.000000 1.000000
0.000000 0.000000 0.000000 0.000000 0.000000 0.000000 1.000000 1.000000 1.000000 1.000000
0.000000 0.000000 0.000000 0.000000 0.000000 0.000000 1.000000 1.000000 1.000000 1.000000
0.000000 0.000000 0.000000 0.000000 0.000000 0.000000 1.000000 1.000000 1.000000 1.000000
0.000000 0.000000 0.000000 0.000000 0.000000 0.000000 1.000000 1.000000 1.000000 1.000000
0.000000 0.000000 0.000000 0.000000 0.000000 0.000000 1.000000 1.000000 1.000000 1.000000
0.000000 0.000000 0.000000 0.000000 0.000000 0.000000 1.000000 1.000000 1.000000 1.000000
0.000000 0.000000 0.000000 0.000000 0.000000 0.000000 1.000000 1.000000 1.000000 1.000000
0.000000 0.000000 0.000000 0.000000 0.000000 0.000000 1.000000 1.000000 1.000000 1.000000
0.000000 0.000000 0.000000 0.000000 0.000000 0.000000 1.000000 1.000000 1.000000 1.000000
0.000000 0.000000 0.000000 0.000000 0.000000 0.000000 1.000000 1.000000 1.000000 1.000000
0.000000 0.000000 0.000000 0.000000 0.000000 0.000000 1.000000 1.000000 1.000000 1.000000
0.000000 0.000000 0.000000 0.000000 0.000000 0.000000 1.000000 1.000000 1.000000 1.000000
0.000000 0.000000 0.000000 0.000000 0.000000 0.000000 1.000000 1.000000 1.000000 1.000000
0.000000 0.000000 0.000000 0.000000 0.000000 0.000000 1.000000 1.000000 1.000000 1.000000
0.000000 0.000000 0.000000 0.000000 0.000000 0.000000 1.000000 1.000000 1.000000 1.000000
0.000000 0.000000 0.000000 0.000000 0.000000 0.000000 1.000000 1.000000 1.000000 1.000000
0.000000 0.000000 0.000000 0.000000 0.000000 0.000000 1.000000 1.000000 1.000000 1.000000
0.000000 0.000000 0.000000 0.000000 0.000000 0.000000 1.000000 1.000000 1.000000 1.000000
0.000000 0.000000 0.000000 0.000000 0.000000 0.000000 1.000000 1.000000 1.000000 1.000000
0.000000 0.000000 0.000000 0.000000 0.000000 0.000000 1.000000 1.000000 1.000000 1.000000
0.000000 0.000000 0.000000 0.000000 0.000000 0.000000 1.000000 1.000000 1.000000 1.000000
0.000000 0.000000 0.000000 0.000000 0.000000 0.000000 1.000000 1.000000 1.000000 1.000000
0.000000 0.000000 0.000000 0.000000 0.000000 0.000000 1.000000 1.000000 1.000000 1.000000
0.000000 0.000000 0.000000 0.000000 0.000000 0.000000 1.000000 1.000000 1.000000 1.000000
0.000000 0.000000 0.000000 0.000000 0.000000 0.000000 1.000000 1.000000 1.000000 1.000000
0.000000 0.000000 0.000000 0.000000 0.000000 0.000000 1.000000 1.000000 1.000000 1.000000
0.000000 0.000000 0.000000 0.000000 0.000000 0.000000 1.000000 1.000000 1.000000 1.000000
0.000000 0.000000 0.000000 0.000000 0.000000 0.000000 1.000000 1.000000 1.000000 1.000000
0.000000 0.000000 0.000000 0.000000 0.000000 0.000000 1.000000 1.000000 1.000000 1.000000
0.000000 0.000000 0.000000 0.000000 0.000000 0.000000 1.000000 1.000000 1.000000 1.000000
0.000000 0.000000 0.000000 0.000000 0.000000 0.000000 1.000000 1.000000 1.000000 1.000000
0.000000 0.000000 0.000000 0.000000 0.000000 0.000000 1.000000 1.000000 1.000000 1.000000
0.000000 0.000000 0.000000 0.000000 0.000000 0.000000 1.000000 1.000000 1.000000 1.000000
0.000000 0.000000 0.000000 0.000000 0.000000 0.000000 1.000000 1.000000 1.000000 1.000000
0.000000 0.000000 0.000000 0.000000 0.000000 0.000000 1.000000 1.000000 1.000000 1.000000
0.000000 0.000000 0.000000 0.000000 0.000000 0.000000 1.000000 1.000000 1.000000 1.000000
0.000000 0.000000 0.000000 0.000000 0.000000 0.000000 1.000000 1.000000 1.000000 1.000000
0.000000 0.000000 0.000000 0.000000 0.000000 0.000000 1.000000 1.000000 1.000000 1.000000
0.000000 0.000000 0.000000 0.000000 0.000000 0.000000 1.000000 1.000000 1.000000 1.000000
0.000000 0.000000 0.000000 0.000000 0.000000 0.000000 1.000000 1.000000 1.000000 1.000000
0.000000 0.000000 0.000000 0.000000 0.000000 0.000000 1.000000 1.000000 1.000000 1.000000
0.000000 0.000000 0.000000 0.000000 0.000000 0.000000 1.000000 1.000000 1.000000 1.000000
0.000000 0.000000 0.000000 0.000000 0.000000 0.000000 1.000000 1.000000 1.000000 1.000000
0.000000 0.000000 0.000000 0.000000 0.000000 0.000000 1.000000 1.000000 1.000000 1.000000
0.000000 0.000000 0.000000 0.000000 0.000000 0.000000 1.000000 1.000000 1.000000 1.000000
0.000000 0.000000 0.000000 0.000000 0.000000 0.000000 1.000000 1.000000 1.000000 1.000000
0.000000 0.000000 0.000000 0.000000 0.000000 0.000000 1.000000 1.000000 1.000000 1.000000
0.000000 0.000000 0.000000 0.000000 0.000000 0.000000 1.000000 1.000000 1.000000 1.000000
0.000000 0.000000 0.000000 0.000000 0.000000 0.000000 1.000000 1.000000 1.000000 1.000000
0.000000 0.000000 0.000000 0.000000 0.000000 0.000000 1.000000 1.000000 1.000000 1.000000
0.000000 0.000000 0.000000 0.000000 0.000000 0.000000 1.000000 1.000000 1.000000 1.000000
0.000000 0.000000 0.000000 0.000000 0.000000 0.000000 1.000000 1.000000 1.000000 1.000000
0.000000 0.000000 0.000000 0.000000 0.000000 0.000000 1.000000 1.000000 1.000000 1.000000
0.000000 0.000000 0.000000 0.000000 0.000000 0.000000 1.000000 1.000000 1.000000 1.000000
0.000000 0.000000 0.000000 0.000000 0.000000 0.000000 1.000000 1.000000 1.000000 1.000000
0.000000 0.000000 0.000000 0.000000 0.000000 0.000000 1.000000 1.000000 1.000000 1.000000
0.000000 0.000000 0.000000 0.000000 0.000000 0.000000 1.000000 1.000000 1.000000 1.000000
0.000000 0.000000 0.000000 0.000000 0.000000 0.000000 1.000000 1.000000 1.000000 1.000000
0.000000 0.000000 0.000000 0.000000 0.000000 0.000000 1.000000 1.000000 1.000000 1.000000
0.000000 0.000000 0.000000 0.000000 0.000000 0.000000 1.000000 1.000000 1.000000 1.000000
0.000000 0.000000 0.000000 0.000000 0.000000 0.000000 1.000000 1.000000 1.000000 1.000000
0.000000 0.000000 0.000000 0.000000 0.000000 0.000000 1.000000 1.000000 1.000000 1.000000
0.000000 0.000000 0.000000 0.000000 0.000000 0.000000 1.000000 1.000000 1.000000 1.000000
0.000000 0.000000 0.000000 0.000000 0.000000 0.000000 1.000000 1.000000 1.000000 1.000000
0.000000 0.000000 0.000000 0.000000 0.000000 0.000000 1.000000 1.000000 1.000000 1.000000
0.000000 0.000000 0.000000 0.000000 0.000000 0.000000 1.000000 1.000000 1.000000 1.000000
0.000000 0.000000 0.000000 0.000000 0.000000 0.000000 1.000000 1.000000 1.000000 1.000000
0.000000 0.000000 0.000000 0.000000 0.000000 0.000000 1.000000 1.000000 1.000000 1.000000
0.000000 0.000000 0.000000 0.000000 0.000000 0.000000 1.000000 1.000000 1.000000 1.000000
0.000000 0.000000 0.000000 0.000000 0.000000 0.000000 1.000000 1.000000 1.000000 1.000000
0.000000 0.000000 0.000000 0.000000 0.000000 0.000000 1.000000 1.000000 1.000000 1.000000
0.000000 0.000000 0.000000 0.000000 0.000000 0.000000 1.000000 1.000000 1.000000 1.000000
0.000000 0.000000 0.000000 0.000000 0.000000 0.000000 1.000000 1.000000 1.000000 1.000000
0.000000 0.000000 0.000000 0.000000 0.000000 0.000000 1.000000 1.000000 1.000000 1.000000
0.000000 0.000000 0.000000 0.000000 0.000000 0.000000 1.000000 1.000000 1.000000 1.000000
0.000000 0.000000 0.000000 0.000000 0.000000 0.000000 1.000000 1.000000 1.000000 1.000000
0.000000 0.000000 0.000000 0.000000 0.000000 0.000000 1.000000 1.000000 1.000000 1.000000
0.000000 0.000000 0.000000 0.000000 0.000000 0.000000 1.000000 1.000000 1.000000 1.000000
0.000000 0.000000 0.000000 0.000000 0.000000 0.000000 1.000000 1.000000 1.000000 1.000000
"}
object={
	name="bridge indian"
	render_pass=MapUnderWater
	clamp_to_water_level=no
	generated_content=no
	layer="temp_layer"
	pdxmesh="bridge_indian_mesh"
	count=0
}
object={
	name="bridge mediterranean"
	render_pass=MapUnderWater
	clamp_to_water_level=no
	generated_content=no
	layer="temp_layer"
	pdxmesh="bridge_mediterranean_mesh"
	count=0
}
object={
	name="bridge mena"
	render_pass=MapUnderWater
	clamp_to_water_level=no
	generated_content=no
	layer="temp_layer"
	pdxmesh="bridge_mena_mesh"
	count=0
}
object={
	name="bridge western"
	render_pass=MapUnderWater
	clamp_to_water_level=no
	generated_content=no
	layer="temp_layer"
	pdxmesh="bridge_western_mesh"
	count=0
}
