﻿object={
	name="lakes"
	render_pass=Map
	clamp_to_water_level=no
	generated_content=no
	layer="lake_layer"
	pdxmesh="lake_mesh"
	count=31
	transform="5698.035645 0.000000 1788.487427 0.000000 0.262336 0.000000 0.964977 28.308453 28.308453 28.308453
6057.924805 7.381836 1755.639771 0.000000 -0.994229 0.000000 0.107271 92.627625 92.627625 92.627625
2889.449219 0.000000 2370.928955 -0.000000 0.513803 -0.000000 0.857908 34.410446 34.410446 34.410446
3242.406006 0.000000 2920.612305 -0.000000 -0.635621 -0.000000 0.772001 41.930130 41.930130 41.930130
1900.128906 2.858398 3224.669922 0.000000 -0.122191 0.000000 0.992507 19.057524 19.057524 19.057524
1918.836792 2.309814 3181.147217 0.000000 0.765269 0.000000 0.643710 15.308249 15.308249 15.308249
2176.025146 2.339844 3228.766602 0.000000 0.330144 0.000000 0.943930 69.984787 69.984787 69.984787
1869.312500 2.280517 3175.295654 -0.000000 -0.096620 -0.000000 0.995321 15.445815 15.445815 15.445815
1958.094604 -0.803467 3200.445801 -0.000000 0.211069 0.000000 -0.977471 32.146439 32.146439 32.146439
1591.205200 0.000000 3362.236328 -0.000000 0.964681 -0.000000 0.263421 25.483078 25.483078 25.483078
345.749725 0.000000 3545.013672 -0.000000 -0.000000 -0.000000 1.000000 1.000000 1.000000 1.000000
426.863403 0.000000 3688.872314 -0.000000 0.999561 -0.000000 -0.029637 16.748085 16.748085 16.748085
375.960999 0.000000 3739.492188 -0.000000 0.647130 -0.000000 -0.762379 59.761566 59.761566 59.761566
795.749573 0.000000 3719.350830 -0.000000 0.064477 -0.000000 0.997919 27.636232 27.636232 27.636232
742.641602 0.000000 3720.813721 -0.000000 -0.789866 -0.000000 0.613279 20.969973 20.969973 20.969973
667.037720 0.000000 3816.055176 -0.000000 -0.789866 -0.000000 0.613279 20.969973 20.969973 20.969973
336.582367 0.000000 3771.321777 -0.000000 0.990271 -0.000000 -0.139151 54.142719 54.142719 54.142719
781.060120 0.000000 3328.693359 -0.000000 -0.971614 -0.000000 -0.236570 8.780802 8.780802 8.780802
908.018433 0.000000 3324.085693 -0.000000 -0.385004 -0.000000 -0.922915 11.086960 11.086960 11.086960
764.808472 0.000000 3317.637939 -0.000000 -0.922668 -0.000000 0.385597 15.618326 15.618326 15.618326
343.685059 0.000000 3545.529297 -0.000000 0.602414 -0.000000 0.798184 20.001837 20.001837 20.001837
406.637451 0.000000 3380.828125 -0.000000 -0.776117 -0.000000 0.630589 21.479996 21.479996 21.479996
707.942017 0.000000 3333.742432 -0.000000 -0.992859 -0.000000 0.119294 47.658257 47.658257 47.658257
687.554016 0.000000 3509.378174 -0.000000 0.972212 -0.000000 -0.234102 14.497252 14.497252 14.497252
497.909698 0.000000 3728.948730 -0.000000 -0.473526 -0.000000 0.880780 35.928440 35.928440 35.928440
2564.788086 1.119874 3342.206299 0.000000 0.947128 0.000000 -0.320857 131.630325 131.630325 131.630325
2079.929688 1.872071 3263.431641 0.000000 -0.702063 0.000000 0.712115 52.205040 52.205040 52.205040
2163.710693 6.443604 3350.993408 0.000000 0.229711 0.000000 0.973259 64.871284 64.871284 64.871284
6028.758301 7.090454 1822.982910 0.000000 0.116556 0.000000 0.993184 57.567799 57.567799 57.567799
2487.884277 1.888183 3194.973877 0.000000 -0.155374 0.000000 0.987856 29.570902 29.570902 29.570902
2552.161865 1.863281 3219.854980 0.000000 -0.383896 0.000000 0.923376 13.890085 13.890085 13.890085
"}
